id;user_name;msisdn;insert_time;status
1;Franc;payment;2021-01-03T17:49:30;86846
2;Account;revolutionary;2021-01-03T14:52:44;71385
3;migration infrastructure;synthesize;2021-01-03T14:31:23;99739
4;Specialist;green;2021-01-03T23:51:24;8484
5;Bedfordshire local;purple;2021-01-03T11:36:43;41324
6;portals;Jersey;2021-01-04T05:45:11;96282
7;initiatives turquoise;Upgradable access Mouse;2021-01-03T21:36:03;59555
8;Chicken Union;quantify;2021-01-03T14:41:22;18835
9;withdrawal Som Field;wireless;2021-01-04T09:17:03;34855
10;red Avon;Metrics;2021-01-03T12:22:28;98763
