2020-09-30 09:03:10,707 INFO org.springframework.boot.StartupInfoLogger [restartedMain] Starting ToeicApplication on DESKTOP-GDE00QD with PID 17476 (D:\DA_WEB_TOEIC\toeic_service\target\classes started by Tung in D:\DA_WEB_TOEIC\toeic_service)
2020-09-30 09:03:10,717 INFO org.springframework.boot.SpringApplication [restartedMain] No active profile set, falling back to default profiles: default
2020-09-30 09:03:10,795 INFO org.springframework.boot.logging.DeferredLog [restartedMain] The Class-Path manifest attribute in D:\DA_WEB_TOEIC\teoic_lib\repo\org\glassfish\jaxb\jaxb-runtime\2.3.2\jaxb-runtime-2.3.2.jar referenced one or more files that do not exist: file:/D:/DA_WEB_TOEIC/teoic_lib/repo/org/glassfish/jaxb/jaxb-runtime/2.3.2/jakarta.xml.bind-api-2.3.2.jar,file:/D:/DA_WEB_TOEIC/teoic_lib/repo/org/glassfish/jaxb/jaxb-runtime/2.3.2/txw2-2.3.2.jar,file:/D:/DA_WEB_TOEIC/teoic_lib/repo/org/glassfish/jaxb/jaxb-runtime/2.3.2/istack-commons-runtime-3.0.8.jar,file:/D:/DA_WEB_TOEIC/teoic_lib/repo/org/glassfish/jaxb/jaxb-runtime/2.3.2/stax-ex-1.8.1.jar,file:/D:/DA_WEB_TOEIC/teoic_lib/repo/org/glassfish/jaxb/jaxb-runtime/2.3.2/FastInfoset-1.2.16.jar,file:/D:/DA_WEB_TOEIC/teoic_lib/repo/org/glassfish/jaxb/jaxb-runtime/2.3.2/jakarta.activation-api-1.2.1.jar
2020-09-30 09:03:10,796 INFO org.springframework.boot.logging.DeferredLog [restartedMain] The Class-Path manifest attribute in D:\DA_WEB_TOEIC\teoic_lib\repo\com\oracle\ojdbc\ojdbc8\19.3.0.0\ojdbc8-19.3.0.0.jar referenced one or more files that do not exist: file:/D:/DA_WEB_TOEIC/teoic_lib/repo/com/oracle/ojdbc/ojdbc8/19.3.0.0/oraclepki.jar
2020-09-30 09:03:10,797 INFO org.springframework.boot.logging.DeferredLog [restartedMain] The Class-Path manifest attribute in D:\DA_WEB_TOEIC\teoic_lib\repo\com\oracle\ojdbc\oraclepki\19.3.0.0\oraclepki-19.3.0.0.jar referenced one or more files that do not exist: file:/D:/DA_WEB_TOEIC/teoic_lib/repo/com/oracle/ojdbc/oraclepki/19.3.0.0/osdt_core.jar,file:/D:/DA_WEB_TOEIC/teoic_lib/repo/com/oracle/ojdbc/oraclepki/19.3.0.0/osdt_cert.jar,file:/D:/DA_WEB_TOEIC/teoic_lib/repo/com/oracle/ojdbc/oraclepki/oracle.osdt/osdt_core.jar,file:/D:/DA_WEB_TOEIC/teoic_lib/repo/com/oracle/ojdbc/oraclepki/oracle.osdt/osdt_cert.jar
2020-09-30 09:03:10,797 INFO org.springframework.boot.logging.DeferredLog [restartedMain] The Class-Path manifest attribute in D:\DA_WEB_TOEIC\teoic_lib\repo\com\google\oauth-client\google-oauth-client-java6\1.11.0-beta\google-oauth-client-java6-1.11.0-beta.jar referenced one or more files that do not exist: file:/D:/DA_WEB_TOEIC/teoic_lib/repo/com/google/oauth-client/google-oauth-client-java6/1.11.0-beta/google-oauth-client-1.11.0-beta.jar,file:/D:/DA_WEB_TOEIC/teoic_lib/repo/com/google/oauth-client/google-oauth-client-java6/1.11.0-beta/google-http-client-1.11.0-beta.jar,file:/D:/DA_WEB_TOEIC/teoic_lib/repo/com/google/oauth-client/google-oauth-client-java6/1.11.0-beta/httpclient-4.0.3.jar,file:/D:/DA_WEB_TOEIC/teoic_lib/repo/com/google/oauth-client/google-oauth-client-java6/1.11.0-beta/httpcore-4.0.1.jar,file:/D:/DA_WEB_TOEIC/teoic_lib/repo/com/google/oauth-client/google-oauth-client-java6/1.11.0-beta/commons-logging-1.1.1.jar,file:/D:/DA_WEB_TOEIC/teoic_lib/repo/com/google/oauth-client/google-oauth-client-java6/1.11.0-beta/xpp3-1.1.4c.jar,file:/D:/DA_WEB_TOEIC/teoic_lib/repo/com/google/oauth-client/google-oauth-client-java6/1.11.0-beta/jsr305-1.3.9.jar,file:/D:/DA_WEB_TOEIC/teoic_lib/repo/com/google/oauth-client/google-oauth-client-java6/1.11.0-beta/guava-11.0.1.jar
2020-09-30 09:03:10,797 INFO org.springframework.boot.logging.DeferredLog [restartedMain] The Class-Path manifest attribute in D:\DA_WEB_TOEIC\teoic_lib\repo\com\sun\xml\bind\jaxb-impl\2.1.13\jaxb-impl-2.1.13.jar referenced one or more files that do not exist: file:/D:/DA_WEB_TOEIC/teoic_lib/repo/com/sun/xml/bind/jaxb-impl/2.1.13/jaxb-api.jar,file:/D:/DA_WEB_TOEIC/teoic_lib/repo/com/sun/xml/bind/jaxb-impl/2.1.13/activation.jar,file:/D:/DA_WEB_TOEIC/teoic_lib/repo/com/sun/xml/bind/jaxb-impl/2.1.13/jsr173_1.0_api.jar,file:/D:/DA_WEB_TOEIC/teoic_lib/repo/com/sun/xml/bind/jaxb-impl/2.1.13/jaxb1-impl.jar
2020-09-30 09:03:10,798 INFO org.springframework.boot.logging.DeferredLog [restartedMain] Devtools property defaults active! Set 'spring.devtools.add-properties' to 'false' to disable
2020-09-30 09:03:10,798 INFO org.springframework.boot.logging.DeferredLog [restartedMain] For additional web related logging consider setting the 'logging.level.web' property to 'DEBUG'
2020-09-30 09:03:11,719 INFO org.springframework.data.repository.config.RepositoryConfigurationDelegate [restartedMain] Bootstrapping Spring Data JPA repositories in DEFAULT mode.
2020-09-30 09:03:11,751 INFO org.springframework.data.repository.config.RepositoryConfigurationDelegate [restartedMain] Finished Spring Data repository scanning in 22ms. Found 0 JPA repository interfaces.
2020-09-30 09:03:12,021 INFO org.springframework.context.support.PostProcessorRegistrationDelegate$BeanPostProcessorChecker [restartedMain] Bean 'org.springframework.ws.config.annotation.DelegatingWsConfiguration' of type [org.springframework.ws.config.annotation.DelegatingWsConfiguration$$EnhancerBySpringCGLIB$$f7b960a2] is not eligible for getting processed by all BeanPostProcessors (for example: not eligible for auto-proxying)
2020-09-30 09:03:12,070 INFO org.springframework.ws.soap.addressing.server.AbstractAddressingEndpointMapping [restartedMain] Supporting [WS-Addressing August 2004, WS-Addressing 1.0]
2020-09-30 09:03:12,120 INFO org.springframework.context.support.PostProcessorRegistrationDelegate$BeanPostProcessorChecker [restartedMain] Bean 'org.springframework.security.config.annotation.configuration.ObjectPostProcessorConfiguration' of type [org.springframework.security.config.annotation.configuration.ObjectPostProcessorConfiguration] is not eligible for getting processed by all BeanPostProcessors (for example: not eligible for auto-proxying)
2020-09-30 09:03:12,124 INFO org.springframework.context.support.PostProcessorRegistrationDelegate$BeanPostProcessorChecker [restartedMain] Bean 'objectPostProcessor' of type [org.springframework.security.config.annotation.configuration.AutowireBeanFactoryObjectPostProcessor] is not eligible for getting processed by all BeanPostProcessors (for example: not eligible for auto-proxying)
2020-09-30 09:03:12,127 INFO org.springframework.context.support.PostProcessorRegistrationDelegate$BeanPostProcessorChecker [restartedMain] Bean 'org.springframework.security.access.expression.method.DefaultMethodSecurityExpressionHandler@5e18b900' of type [org.springframework.security.access.expression.method.DefaultMethodSecurityExpressionHandler] is not eligible for getting processed by all BeanPostProcessors (for example: not eligible for auto-proxying)
2020-09-30 09:03:12,128 INFO org.springframework.context.support.PostProcessorRegistrationDelegate$BeanPostProcessorChecker [restartedMain] Bean 'org.springframework.security.config.annotation.method.configuration.GlobalMethodSecurityConfiguration' of type [org.springframework.security.config.annotation.method.configuration.GlobalMethodSecurityConfiguration] is not eligible for getting processed by all BeanPostProcessors (for example: not eligible for auto-proxying)
2020-09-30 09:03:12,133 INFO org.springframework.context.support.PostProcessorRegistrationDelegate$BeanPostProcessorChecker [restartedMain] Bean 'methodSecurityMetadataSource' of type [org.springframework.security.access.method.DelegatingMethodSecurityMetadataSource] is not eligible for getting processed by all BeanPostProcessors (for example: not eligible for auto-proxying)
2020-09-30 09:03:12,522 INFO org.springframework.boot.web.embedded.tomcat.TomcatWebServer [restartedMain] Tomcat initialized with port(s): 8088 (http)
2020-09-30 09:03:12,533 INFO org.apache.juli.logging.DirectJDKLog [restartedMain] Starting service [Tomcat]
2020-09-30 09:03:12,534 INFO org.apache.juli.logging.DirectJDKLog [restartedMain] Starting Servlet engine: [Apache Tomcat/9.0.33]
2020-09-30 09:03:12,670 INFO org.apache.juli.logging.DirectJDKLog [restartedMain] Initializing Spring embedded WebApplicationContext
2020-09-30 09:03:12,671 INFO org.springframework.boot.web.servlet.context.ServletWebServerApplicationContext [restartedMain] Root WebApplicationContext: initialization completed in 1873 ms
2020-09-30 09:03:13,211 INFO org.hibernate.Version [restartedMain] HHH000412: Hibernate ORM core version 5.4.12.Final
2020-09-30 09:03:13,443 INFO org.hibernate.annotations.common.reflection.java.JavaReflectionManager [restartedMain] HCANN000001: Hibernate Commons Annotations {5.1.0.Final}
2020-09-30 09:03:13,544 WARN com.zaxxer.hikari.HikariConfig [restartedMain] HikariPool-1 - idleTimeout has been set but has no effect because the pool is operating as a fixed size pool.
2020-09-30 09:03:13,545 INFO com.zaxxer.hikari.HikariDataSource [restartedMain] HikariPool-1 - Starting...
2020-09-30 09:03:13,546 WARN com.zaxxer.hikari.util.DriverDataSource [restartedMain] Registered driver with driverClassName=oracle.jdbc.driver.OracleDriver was not found, trying direct instantiation.
2020-09-30 09:03:14,618 INFO com.zaxxer.hikari.HikariDataSource [restartedMain] HikariPool-1 - Start completed.
2020-09-30 09:03:14,636 INFO org.hibernate.dialect.Dialect [restartedMain] HHH000400: Using dialect: org.hibernate.dialect.Oracle10gDialect
2020-09-30 09:03:17,131 INFO org.hibernate.engine.transaction.jta.platform.internal.JtaPlatformInitiator [restartedMain] HHH000490: Using JtaPlatform implementation: [org.hibernate.engine.transaction.jta.platform.internal.NoJtaPlatform]
2020-09-30 09:03:18,122 INFO springfox.documentation.spring.web.PropertySourcedRequestMappingHandlerMapping [restartedMain] Mapped URL path [/v2/api-docs] onto method [springfox.documentation.swagger2.web.Swagger2Controller#getDocumentation(String, HttpServletRequest)]
2020-09-30 09:03:18,259 INFO org.springframework.security.web.DefaultSecurityFilterChain [restartedMain] Creating filter chain: any request, [org.springframework.security.web.context.request.async.WebAsyncManagerIntegrationFilter@398aabe6, org.springframework.security.web.context.SecurityContextPersistenceFilter@73b0df10, org.springframework.security.web.header.HeaderWriterFilter@d716a7a, org.springframework.web.filter.CorsFilter@5076c93a, org.springframework.security.web.authentication.logout.LogoutFilter@6538d2f3, com.migi.toeic.authen.JwtRequestFilter@593e0133, org.springframework.security.web.savedrequest.RequestCacheAwareFilter@6790883b, org.springframework.security.web.servletapi.SecurityContextHolderAwareRequestFilter@13168b9f, org.springframework.security.web.authentication.AnonymousAuthenticationFilter@269e731e, org.springframework.security.web.session.SessionManagementFilter@35a862ba, org.springframework.security.web.access.ExceptionTranslationFilter@6b6de483, org.springframework.security.web.access.intercept.FilterSecurityInterceptor@1d11ca71]
2020-09-30 09:03:18,368 INFO org.springframework.scheduling.concurrent.ExecutorConfigurationSupport [restartedMain] Initializing ExecutorService 'applicationTaskExecutor'
2020-09-30 09:03:18,420 INFO org.springframework.boot.devtools.autoconfigure.OptionalLiveReloadServer [restartedMain] LiveReload server is running on port 35729
2020-09-30 09:03:18,618 INFO springfox.documentation.spring.web.plugins.DocumentationPluginsBootstrapper [restartedMain] Context refreshed
2020-09-30 09:03:18,636 INFO springfox.documentation.spring.web.plugins.DocumentationPluginsBootstrapper [restartedMain] Found 1 custom documentation plugin(s)
2020-09-30 09:03:19,151 INFO springfox.documentation.spring.web.scanners.ApiListingReferenceScanner [restartedMain] Scanning for api listing references
2020-09-30 09:03:19,319 INFO springfox.documentation.spring.web.readers.operation.CachingOperationNameGenerator [restartedMain] Generating unique operation named: createUsingPOST_1
2020-09-30 09:03:19,359 INFO springfox.documentation.spring.web.readers.operation.CachingOperationNameGenerator [restartedMain] Generating unique operation named: deleteUsingPOST_1
2020-09-30 09:03:19,363 INFO springfox.documentation.spring.web.readers.operation.CachingOperationNameGenerator [restartedMain] Generating unique operation named: doSearchUsingPOST_1
2020-09-30 09:03:19,371 INFO springfox.documentation.spring.web.readers.operation.CachingOperationNameGenerator [restartedMain] Generating unique operation named: getDetailUsingPOST_1
2020-09-30 09:03:19,383 INFO springfox.documentation.spring.web.readers.operation.CachingOperationNameGenerator [restartedMain] Generating unique operation named: updateUsingPOST_1
2020-09-30 09:03:19,409 INFO springfox.documentation.spring.web.readers.operation.CachingOperationNameGenerator [restartedMain] Generating unique operation named: doSearchUsingPOST_2
2020-09-30 09:03:19,425 INFO springfox.documentation.spring.web.readers.operation.CachingOperationNameGenerator [restartedMain] Generating unique operation named: doSearchUsingPOST_3
2020-09-30 09:03:19,445 INFO springfox.documentation.spring.web.readers.operation.CachingOperationNameGenerator [restartedMain] Generating unique operation named: getDetailUsingPOST_2
2020-09-30 09:03:19,467 INFO springfox.documentation.spring.web.readers.operation.CachingOperationNameGenerator [restartedMain] Generating unique operation named: createUsingPOST_2
2020-09-30 09:03:19,470 INFO springfox.documentation.spring.web.readers.operation.CachingOperationNameGenerator [restartedMain] Generating unique operation named: deleteUsingPOST_2
2020-09-30 09:03:19,475 INFO springfox.documentation.spring.web.readers.operation.CachingOperationNameGenerator [restartedMain] Generating unique operation named: getDetailUsingPOST_3
2020-09-30 09:03:19,478 INFO springfox.documentation.spring.web.readers.operation.CachingOperationNameGenerator [restartedMain] Generating unique operation named: updateUsingPOST_2
2020-09-30 09:03:19,484 INFO springfox.documentation.spring.web.readers.operation.CachingOperationNameGenerator [restartedMain] Generating unique operation named: createUsingPOST_3
2020-09-30 09:03:19,487 INFO springfox.documentation.spring.web.readers.operation.CachingOperationNameGenerator [restartedMain] Generating unique operation named: deleteUsingPOST_3
2020-09-30 09:03:19,493 INFO springfox.documentation.spring.web.readers.operation.CachingOperationNameGenerator [restartedMain] Generating unique operation named: getDetailUsingPOST_4
2020-09-30 09:03:19,500 INFO springfox.documentation.spring.web.readers.operation.CachingOperationNameGenerator [restartedMain] Generating unique operation named: updateUsingPOST_3
2020-09-30 09:03:19,506 INFO springfox.documentation.spring.web.readers.operation.CachingOperationNameGenerator [restartedMain] Generating unique operation named: createUsingPOST_4
2020-09-30 09:03:19,508 INFO springfox.documentation.spring.web.readers.operation.CachingOperationNameGenerator [restartedMain] Generating unique operation named: deleteUsingPOST_4
2020-09-30 09:03:19,513 INFO springfox.documentation.spring.web.readers.operation.CachingOperationNameGenerator [restartedMain] Generating unique operation named: getDetailUsingPOST_5
2020-09-30 09:03:19,516 INFO springfox.documentation.spring.web.readers.operation.CachingOperationNameGenerator [restartedMain] Generating unique operation named: updateUsingPOST_4
2020-09-30 09:03:19,520 INFO springfox.documentation.spring.web.readers.operation.CachingOperationNameGenerator [restartedMain] Generating unique operation named: createUsingPOST_5
2020-09-30 09:03:19,523 INFO springfox.documentation.spring.web.readers.operation.CachingOperationNameGenerator [restartedMain] Generating unique operation named: deleteUsingPOST_5
2020-09-30 09:03:19,527 INFO springfox.documentation.spring.web.readers.operation.CachingOperationNameGenerator [restartedMain] Generating unique operation named: getDetailUsingPOST_6
2020-09-30 09:03:19,530 INFO springfox.documentation.spring.web.readers.operation.CachingOperationNameGenerator [restartedMain] Generating unique operation named: updateUsingPOST_5
2020-09-30 09:03:19,544 INFO springfox.documentation.spring.web.readers.operation.CachingOperationNameGenerator [restartedMain] Generating unique operation named: doSearchUsingPOST_4
2020-09-30 09:03:19,555 INFO springfox.documentation.spring.web.readers.operation.CachingOperationNameGenerator [restartedMain] Generating unique operation named: getDetailUsingPOST_7
2020-09-30 09:03:19,615 INFO springfox.documentation.spring.web.readers.operation.CachingOperationNameGenerator [restartedMain] Generating unique operation named: createUsingPOST_6
2020-09-30 09:03:19,621 INFO springfox.documentation.spring.web.readers.operation.CachingOperationNameGenerator [restartedMain] Generating unique operation named: deleteUsingPOST_6
2020-09-30 09:03:19,626 INFO springfox.documentation.spring.web.readers.operation.CachingOperationNameGenerator [restartedMain] Generating unique operation named: doSearchUsingPOST_5
2020-09-30 09:03:19,630 INFO springfox.documentation.spring.web.readers.operation.CachingOperationNameGenerator [restartedMain] Generating unique operation named: getDetailUsingPOST_8
2020-09-30 09:03:19,662 INFO springfox.documentation.spring.web.readers.operation.CachingOperationNameGenerator [restartedMain] Generating unique operation named: updateUsingPOST_6
2020-09-30 09:03:19,676 INFO springfox.documentation.spring.web.readers.operation.CachingOperationNameGenerator [restartedMain] Generating unique operation named: doSearchUsingPOST_6
2020-09-30 09:03:19,681 INFO springfox.documentation.spring.web.readers.operation.CachingOperationNameGenerator [restartedMain] Generating unique operation named: getDetailUsingPOST_9
2020-09-30 09:03:19,759 INFO org.springframework.boot.web.embedded.tomcat.TomcatWebServer [restartedMain] Tomcat started on port(s): 8088 (http) with context path ''
2020-09-30 09:03:19,765 INFO org.springframework.boot.StartupInfoLogger [restartedMain] Started ToeicApplication in 9.314 seconds (JVM running for 10.458)
2020-09-30 09:04:36,980 INFO org.apache.juli.logging.DirectJDKLog [http-nio-8088-exec-1] Initializing Spring DispatcherServlet 'dispatcherServlet'
2020-09-30 09:04:36,996 INFO org.springframework.web.servlet.FrameworkServlet [http-nio-8088-exec-1] Initializing Servlet 'dispatcherServlet'
2020-09-30 09:04:37,258 INFO org.springframework.web.servlet.FrameworkServlet [http-nio-8088-exec-1] Completed initialization in 261 ms
2020-09-30 11:57:20,530 INFO org.springframework.boot.admin.SpringApplicationAdminMXBeanRegistrar$SpringApplicationAdmin [RMI TCP Connection(3)-127.0.0.1] Application shutdown requested.
2020-09-30 11:57:21,111 INFO org.springframework.scheduling.concurrent.ExecutorConfigurationSupport [RMI TCP Connection(3)-127.0.0.1] Shutting down ExecutorService 'applicationTaskExecutor'
2020-09-30 11:57:21,237 INFO com.zaxxer.hikari.HikariDataSource [RMI TCP Connection(3)-127.0.0.1] HikariPool-1 - Shutdown initiated...
2020-09-30 11:57:21,418 INFO com.zaxxer.hikari.HikariDataSource [RMI TCP Connection(3)-127.0.0.1] HikariPool-1 - Shutdown completed.
2020-09-30 13:52:59,830 INFO org.springframework.boot.StartupInfoLogger [restartedMain] Starting ToeicApplication on DESKTOP-GDE00QD with PID 10084 (D:\DA_WEB_TOEIC\toeic_service\target\classes started by Tung in D:\DA_WEB_TOEIC\toeic_service)
2020-09-30 13:52:59,833 INFO org.springframework.boot.SpringApplication [restartedMain] No active profile set, falling back to default profiles: default
2020-09-30 13:52:59,882 INFO org.springframework.boot.logging.DeferredLog [restartedMain] The Class-Path manifest attribute in D:\DA_WEB_TOEIC\teoic_lib\repo\org\glassfish\jaxb\jaxb-runtime\2.3.2\jaxb-runtime-2.3.2.jar referenced one or more files that do not exist: file:/D:/DA_WEB_TOEIC/teoic_lib/repo/org/glassfish/jaxb/jaxb-runtime/2.3.2/jakarta.xml.bind-api-2.3.2.jar,file:/D:/DA_WEB_TOEIC/teoic_lib/repo/org/glassfish/jaxb/jaxb-runtime/2.3.2/txw2-2.3.2.jar,file:/D:/DA_WEB_TOEIC/teoic_lib/repo/org/glassfish/jaxb/jaxb-runtime/2.3.2/istack-commons-runtime-3.0.8.jar,file:/D:/DA_WEB_TOEIC/teoic_lib/repo/org/glassfish/jaxb/jaxb-runtime/2.3.2/stax-ex-1.8.1.jar,file:/D:/DA_WEB_TOEIC/teoic_lib/repo/org/glassfish/jaxb/jaxb-runtime/2.3.2/FastInfoset-1.2.16.jar,file:/D:/DA_WEB_TOEIC/teoic_lib/repo/org/glassfish/jaxb/jaxb-runtime/2.3.2/jakarta.activation-api-1.2.1.jar
2020-09-30 13:52:59,882 INFO org.springframework.boot.logging.DeferredLog [restartedMain] The Class-Path manifest attribute in D:\DA_WEB_TOEIC\teoic_lib\repo\com\oracle\ojdbc\ojdbc8\19.3.0.0\ojdbc8-19.3.0.0.jar referenced one or more files that do not exist: file:/D:/DA_WEB_TOEIC/teoic_lib/repo/com/oracle/ojdbc/ojdbc8/19.3.0.0/oraclepki.jar
2020-09-30 13:52:59,883 INFO org.springframework.boot.logging.DeferredLog [restartedMain] The Class-Path manifest attribute in D:\DA_WEB_TOEIC\teoic_lib\repo\com\oracle\ojdbc\oraclepki\19.3.0.0\oraclepki-19.3.0.0.jar referenced one or more files that do not exist: file:/D:/DA_WEB_TOEIC/teoic_lib/repo/com/oracle/ojdbc/oraclepki/19.3.0.0/osdt_core.jar,file:/D:/DA_WEB_TOEIC/teoic_lib/repo/com/oracle/ojdbc/oraclepki/19.3.0.0/osdt_cert.jar,file:/D:/DA_WEB_TOEIC/teoic_lib/repo/com/oracle/ojdbc/oraclepki/oracle.osdt/osdt_core.jar,file:/D:/DA_WEB_TOEIC/teoic_lib/repo/com/oracle/ojdbc/oraclepki/oracle.osdt/osdt_cert.jar
2020-09-30 13:52:59,883 INFO org.springframework.boot.logging.DeferredLog [restartedMain] The Class-Path manifest attribute in D:\DA_WEB_TOEIC\teoic_lib\repo\com\google\oauth-client\google-oauth-client-java6\1.11.0-beta\google-oauth-client-java6-1.11.0-beta.jar referenced one or more files that do not exist: file:/D:/DA_WEB_TOEIC/teoic_lib/repo/com/google/oauth-client/google-oauth-client-java6/1.11.0-beta/google-oauth-client-1.11.0-beta.jar,file:/D:/DA_WEB_TOEIC/teoic_lib/repo/com/google/oauth-client/google-oauth-client-java6/1.11.0-beta/google-http-client-1.11.0-beta.jar,file:/D:/DA_WEB_TOEIC/teoic_lib/repo/com/google/oauth-client/google-oauth-client-java6/1.11.0-beta/httpclient-4.0.3.jar,file:/D:/DA_WEB_TOEIC/teoic_lib/repo/com/google/oauth-client/google-oauth-client-java6/1.11.0-beta/httpcore-4.0.1.jar,file:/D:/DA_WEB_TOEIC/teoic_lib/repo/com/google/oauth-client/google-oauth-client-java6/1.11.0-beta/commons-logging-1.1.1.jar,file:/D:/DA_WEB_TOEIC/teoic_lib/repo/com/google/oauth-client/google-oauth-client-java6/1.11.0-beta/xpp3-1.1.4c.jar,file:/D:/DA_WEB_TOEIC/teoic_lib/repo/com/google/oauth-client/google-oauth-client-java6/1.11.0-beta/jsr305-1.3.9.jar,file:/D:/DA_WEB_TOEIC/teoic_lib/repo/com/google/oauth-client/google-oauth-client-java6/1.11.0-beta/guava-11.0.1.jar
2020-09-30 13:52:59,883 INFO org.springframework.boot.logging.DeferredLog [restartedMain] The Class-Path manifest attribute in D:\DA_WEB_TOEIC\teoic_lib\repo\com\sun\xml\bind\jaxb-impl\2.1.13\jaxb-impl-2.1.13.jar referenced one or more files that do not exist: file:/D:/DA_WEB_TOEIC/teoic_lib/repo/com/sun/xml/bind/jaxb-impl/2.1.13/jaxb-api.jar,file:/D:/DA_WEB_TOEIC/teoic_lib/repo/com/sun/xml/bind/jaxb-impl/2.1.13/activation.jar,file:/D:/DA_WEB_TOEIC/teoic_lib/repo/com/sun/xml/bind/jaxb-impl/2.1.13/jsr173_1.0_api.jar,file:/D:/DA_WEB_TOEIC/teoic_lib/repo/com/sun/xml/bind/jaxb-impl/2.1.13/jaxb1-impl.jar
2020-09-30 13:52:59,883 INFO org.springframework.boot.logging.DeferredLog [restartedMain] Devtools property defaults active! Set 'spring.devtools.add-properties' to 'false' to disable
2020-09-30 13:52:59,884 INFO org.springframework.boot.logging.DeferredLog [restartedMain] For additional web related logging consider setting the 'logging.level.web' property to 'DEBUG'
2020-09-30 13:53:00,923 INFO org.springframework.data.repository.config.RepositoryConfigurationDelegate [restartedMain] Bootstrapping Spring Data JPA repositories in DEFAULT mode.
2020-09-30 13:53:00,962 INFO org.springframework.data.repository.config.RepositoryConfigurationDelegate [restartedMain] Finished Spring Data repository scanning in 27ms. Found 0 JPA repository interfaces.
2020-09-30 13:53:01,231 INFO org.springframework.context.support.PostProcessorRegistrationDelegate$BeanPostProcessorChecker [restartedMain] Bean 'org.springframework.ws.config.annotation.DelegatingWsConfiguration' of type [org.springframework.ws.config.annotation.DelegatingWsConfiguration$$EnhancerBySpringCGLIB$$a14c2f0] is not eligible for getting processed by all BeanPostProcessors (for example: not eligible for auto-proxying)
2020-09-30 13:53:01,271 INFO org.springframework.ws.soap.addressing.server.AbstractAddressingEndpointMapping [restartedMain] Supporting [WS-Addressing August 2004, WS-Addressing 1.0]
2020-09-30 13:53:01,304 INFO org.springframework.context.support.PostProcessorRegistrationDelegate$BeanPostProcessorChecker [restartedMain] Bean 'org.springframework.security.config.annotation.configuration.ObjectPostProcessorConfiguration' of type [org.springframework.security.config.annotation.configuration.ObjectPostProcessorConfiguration] is not eligible for getting processed by all BeanPostProcessors (for example: not eligible for auto-proxying)
2020-09-30 13:53:01,307 INFO org.springframework.context.support.PostProcessorRegistrationDelegate$BeanPostProcessorChecker [restartedMain] Bean 'objectPostProcessor' of type [org.springframework.security.config.annotation.configuration.AutowireBeanFactoryObjectPostProcessor] is not eligible for getting processed by all BeanPostProcessors (for example: not eligible for auto-proxying)
2020-09-30 13:53:01,309 INFO org.springframework.context.support.PostProcessorRegistrationDelegate$BeanPostProcessorChecker [restartedMain] Bean 'org.springframework.security.access.expression.method.DefaultMethodSecurityExpressionHandler@731ade60' of type [org.springframework.security.access.expression.method.DefaultMethodSecurityExpressionHandler] is not eligible for getting processed by all BeanPostProcessors (for example: not eligible for auto-proxying)
2020-09-30 13:53:01,312 INFO org.springframework.context.support.PostProcessorRegistrationDelegate$BeanPostProcessorChecker [restartedMain] Bean 'org.springframework.security.config.annotation.method.configuration.GlobalMethodSecurityConfiguration' of type [org.springframework.security.config.annotation.method.configuration.GlobalMethodSecurityConfiguration] is not eligible for getting processed by all BeanPostProcessors (for example: not eligible for auto-proxying)
2020-09-30 13:53:01,314 INFO org.springframework.context.support.PostProcessorRegistrationDelegate$BeanPostProcessorChecker [restartedMain] Bean 'methodSecurityMetadataSource' of type [org.springframework.security.access.method.DelegatingMethodSecurityMetadataSource] is not eligible for getting processed by all BeanPostProcessors (for example: not eligible for auto-proxying)
2020-09-30 13:53:01,597 INFO org.springframework.boot.web.embedded.tomcat.TomcatWebServer [restartedMain] Tomcat initialized with port(s): 8088 (http)
2020-09-30 13:53:01,604 INFO org.apache.juli.logging.DirectJDKLog [restartedMain] Starting service [Tomcat]
2020-09-30 13:53:01,605 INFO org.apache.juli.logging.DirectJDKLog [restartedMain] Starting Servlet engine: [Apache Tomcat/9.0.33]
2020-09-30 13:53:01,708 INFO org.apache.juli.logging.DirectJDKLog [restartedMain] Initializing Spring embedded WebApplicationContext
2020-09-30 13:53:01,709 INFO org.springframework.boot.web.servlet.context.ServletWebServerApplicationContext [restartedMain] Root WebApplicationContext: initialization completed in 1825 ms
2020-09-30 13:53:02,000 INFO org.hibernate.Version [restartedMain] HHH000412: Hibernate ORM core version 5.4.12.Final
2020-09-30 13:53:02,153 INFO org.hibernate.annotations.common.reflection.java.JavaReflectionManager [restartedMain] HCANN000001: Hibernate Commons Annotations {5.1.0.Final}
2020-09-30 13:53:02,254 WARN com.zaxxer.hikari.HikariConfig [restartedMain] HikariPool-1 - idleTimeout has been set but has no effect because the pool is operating as a fixed size pool.
2020-09-30 13:53:02,255 INFO com.zaxxer.hikari.HikariDataSource [restartedMain] HikariPool-1 - Starting...
2020-09-30 13:53:02,257 WARN com.zaxxer.hikari.util.DriverDataSource [restartedMain] Registered driver with driverClassName=oracle.jdbc.driver.OracleDriver was not found, trying direct instantiation.
2020-09-30 13:53:03,241 INFO com.zaxxer.hikari.HikariDataSource [restartedMain] HikariPool-1 - Start completed.
2020-09-30 13:53:03,262 INFO org.hibernate.dialect.Dialect [restartedMain] HHH000400: Using dialect: org.hibernate.dialect.Oracle10gDialect
2020-09-30 13:53:05,523 INFO org.hibernate.engine.transaction.jta.platform.internal.JtaPlatformInitiator [restartedMain] HHH000490: Using JtaPlatform implementation: [org.hibernate.engine.transaction.jta.platform.internal.NoJtaPlatform]
2020-09-30 13:53:06,188 INFO springfox.documentation.spring.web.PropertySourcedRequestMappingHandlerMapping [restartedMain] Mapped URL path [/v2/api-docs] onto method [springfox.documentation.swagger2.web.Swagger2Controller#getDocumentation(String, HttpServletRequest)]
2020-09-30 13:53:06,302 INFO org.springframework.security.web.DefaultSecurityFilterChain [restartedMain] Creating filter chain: any request, [org.springframework.security.web.context.request.async.WebAsyncManagerIntegrationFilter@597a5f71, org.springframework.security.web.context.SecurityContextPersistenceFilter@4fe76867, org.springframework.security.web.header.HeaderWriterFilter@23888cfc, org.springframework.web.filter.CorsFilter@4e0e662a, org.springframework.security.web.authentication.logout.LogoutFilter@5acdf285, com.migi.toeic.authen.JwtRequestFilter@6a38d12c, org.springframework.security.web.savedrequest.RequestCacheAwareFilter@6250af13, org.springframework.security.web.servletapi.SecurityContextHolderAwareRequestFilter@6c2898fd, org.springframework.security.web.authentication.AnonymousAuthenticationFilter@61b79482, org.springframework.security.web.session.SessionManagementFilter@10ba57b8, org.springframework.security.web.access.ExceptionTranslationFilter@749fcb4f, org.springframework.security.web.access.intercept.FilterSecurityInterceptor@5d0163b7]
2020-09-30 13:53:06,362 INFO org.springframework.scheduling.concurrent.ExecutorConfigurationSupport [restartedMain] Initializing ExecutorService 'applicationTaskExecutor'
2020-09-30 13:53:06,407 INFO org.springframework.boot.devtools.autoconfigure.OptionalLiveReloadServer [restartedMain] LiveReload server is running on port 35729
2020-09-30 13:53:06,569 INFO springfox.documentation.spring.web.plugins.DocumentationPluginsBootstrapper [restartedMain] Context refreshed
2020-09-30 13:53:06,583 INFO springfox.documentation.spring.web.plugins.DocumentationPluginsBootstrapper [restartedMain] Found 1 custom documentation plugin(s)
2020-09-30 13:53:06,951 INFO springfox.documentation.spring.web.scanners.ApiListingReferenceScanner [restartedMain] Scanning for api listing references
2020-09-30 13:53:07,088 INFO springfox.documentation.spring.web.readers.operation.CachingOperationNameGenerator [restartedMain] Generating unique operation named: createUsingPOST_1
2020-09-30 13:53:07,121 INFO springfox.documentation.spring.web.readers.operation.CachingOperationNameGenerator [restartedMain] Generating unique operation named: deleteUsingPOST_1
2020-09-30 13:53:07,126 INFO springfox.documentation.spring.web.readers.operation.CachingOperationNameGenerator [restartedMain] Generating unique operation named: doSearchUsingPOST_1
2020-09-30 13:53:07,133 INFO springfox.documentation.spring.web.readers.operation.CachingOperationNameGenerator [restartedMain] Generating unique operation named: getDetailUsingPOST_1
2020-09-30 13:53:07,145 INFO springfox.documentation.spring.web.readers.operation.CachingOperationNameGenerator [restartedMain] Generating unique operation named: updateUsingPOST_1
2020-09-30 13:53:07,174 INFO springfox.documentation.spring.web.readers.operation.CachingOperationNameGenerator [restartedMain] Generating unique operation named: doSearchUsingPOST_2
2020-09-30 13:53:07,189 INFO springfox.documentation.spring.web.readers.operation.CachingOperationNameGenerator [restartedMain] Generating unique operation named: doSearchUsingPOST_3
2020-09-30 13:53:07,200 INFO springfox.documentation.spring.web.readers.operation.CachingOperationNameGenerator [restartedMain] Generating unique operation named: getDetailUsingPOST_2
2020-09-30 13:53:07,233 INFO springfox.documentation.spring.web.readers.operation.CachingOperationNameGenerator [restartedMain] Generating unique operation named: createUsingPOST_2
2020-09-30 13:53:07,236 INFO springfox.documentation.spring.web.readers.operation.CachingOperationNameGenerator [restartedMain] Generating unique operation named: deleteUsingPOST_2
2020-09-30 13:53:07,242 INFO springfox.documentation.spring.web.readers.operation.CachingOperationNameGenerator [restartedMain] Generating unique operation named: getDetailUsingPOST_3
2020-09-30 13:53:07,245 INFO springfox.documentation.spring.web.readers.operation.CachingOperationNameGenerator [restartedMain] Generating unique operation named: updateUsingPOST_2
2020-09-30 13:53:07,250 INFO springfox.documentation.spring.web.readers.operation.CachingOperationNameGenerator [restartedMain] Generating unique operation named: createUsingPOST_3
2020-09-30 13:53:07,252 INFO springfox.documentation.spring.web.readers.operation.CachingOperationNameGenerator [restartedMain] Generating unique operation named: deleteUsingPOST_3
2020-09-30 13:53:07,258 INFO springfox.documentation.spring.web.readers.operation.CachingOperationNameGenerator [restartedMain] Generating unique operation named: getDetailUsingPOST_4
2020-09-30 13:53:07,262 INFO springfox.documentation.spring.web.readers.operation.CachingOperationNameGenerator [restartedMain] Generating unique operation named: updateUsingPOST_3
2020-09-30 13:53:07,267 INFO springfox.documentation.spring.web.readers.operation.CachingOperationNameGenerator [restartedMain] Generating unique operation named: createUsingPOST_4
2020-09-30 13:53:07,270 INFO springfox.documentation.spring.web.readers.operation.CachingOperationNameGenerator [restartedMain] Generating unique operation named: deleteUsingPOST_4
2020-09-30 13:53:07,275 INFO springfox.documentation.spring.web.readers.operation.CachingOperationNameGenerator [restartedMain] Generating unique operation named: getDetailUsingPOST_5
2020-09-30 13:53:07,277 INFO springfox.documentation.spring.web.readers.operation.CachingOperationNameGenerator [restartedMain] Generating unique operation named: updateUsingPOST_4
2020-09-30 13:53:07,281 INFO springfox.documentation.spring.web.readers.operation.CachingOperationNameGenerator [restartedMain] Generating unique operation named: createUsingPOST_5
2020-09-30 13:53:07,284 INFO springfox.documentation.spring.web.readers.operation.CachingOperationNameGenerator [restartedMain] Generating unique operation named: deleteUsingPOST_5
2020-09-30 13:53:07,289 INFO springfox.documentation.spring.web.readers.operation.CachingOperationNameGenerator [restartedMain] Generating unique operation named: getDetailUsingPOST_6
2020-09-30 13:53:07,292 INFO springfox.documentation.spring.web.readers.operation.CachingOperationNameGenerator [restartedMain] Generating unique operation named: updateUsingPOST_5
2020-09-30 13:53:07,305 INFO springfox.documentation.spring.web.readers.operation.CachingOperationNameGenerator [restartedMain] Generating unique operation named: doSearchUsingPOST_4
2020-09-30 13:53:07,313 INFO springfox.documentation.spring.web.readers.operation.CachingOperationNameGenerator [restartedMain] Generating unique operation named: getDetailUsingPOST_7
2020-09-30 13:53:07,356 INFO springfox.documentation.spring.web.readers.operation.CachingOperationNameGenerator [restartedMain] Generating unique operation named: createUsingPOST_6
2020-09-30 13:53:07,360 INFO springfox.documentation.spring.web.readers.operation.CachingOperationNameGenerator [restartedMain] Generating unique operation named: deleteUsingPOST_6
2020-09-30 13:53:07,363 INFO springfox.documentation.spring.web.readers.operation.CachingOperationNameGenerator [restartedMain] Generating unique operation named: doSearchUsingPOST_5
2020-09-30 13:53:07,366 INFO springfox.documentation.spring.web.readers.operation.CachingOperationNameGenerator [restartedMain] Generating unique operation named: getDetailUsingPOST_8
2020-09-30 13:53:07,383 INFO springfox.documentation.spring.web.readers.operation.CachingOperationNameGenerator [restartedMain] Generating unique operation named: updateUsingPOST_6
2020-09-30 13:53:07,392 INFO springfox.documentation.spring.web.readers.operation.CachingOperationNameGenerator [restartedMain] Generating unique operation named: doSearchUsingPOST_6
2020-09-30 13:53:07,394 INFO springfox.documentation.spring.web.readers.operation.CachingOperationNameGenerator [restartedMain] Generating unique operation named: getDetailUsingPOST_9
2020-09-30 13:53:07,450 INFO org.springframework.boot.web.embedded.tomcat.TomcatWebServer [restartedMain] Tomcat started on port(s): 8088 (http) with context path ''
2020-09-30 13:53:07,453 INFO org.springframework.boot.StartupInfoLogger [restartedMain] Started ToeicApplication in 8.021 seconds (JVM running for 12.876)
2020-09-30 13:53:46,222 INFO org.apache.juli.logging.DirectJDKLog [http-nio-8088-exec-1] Initializing Spring DispatcherServlet 'dispatcherServlet'
2020-09-30 13:53:46,223 INFO org.springframework.web.servlet.FrameworkServlet [http-nio-8088-exec-1] Initializing Servlet 'dispatcherServlet'
2020-09-30 13:53:46,229 INFO org.springframework.web.servlet.FrameworkServlet [http-nio-8088-exec-1] Completed initialization in 6 ms
2020-09-30 13:53:47,656 WARN org.hibernate.internal.SessionImpl [http-nio-8088-exec-3] HHH90000022: Hibernate's legacy org.hibernate.Criteria API is deprecated; use the JPA javax.persistence.criteria.CriteriaQuery instead
2020-09-30 13:53:47,824 WARN org.hibernate.internal.SessionImpl [http-nio-8088-exec-3] HHH90000022: Hibernate's legacy org.hibernate.Criteria API is deprecated; use the JPA javax.persistence.criteria.CriteriaQuery instead
2020-09-30 13:53:48,104 WARN org.hibernate.internal.SessionImpl [http-nio-8088-exec-4] HHH90000022: Hibernate's legacy org.hibernate.Criteria API is deprecated; use the JPA javax.persistence.criteria.CriteriaQuery instead
2020-09-30 13:53:48,223 WARN org.hibernate.internal.SessionImpl [http-nio-8088-exec-4] HHH90000022: Hibernate's legacy org.hibernate.Criteria API is deprecated; use the JPA javax.persistence.criteria.CriteriaQuery instead
2020-09-30 13:53:49,728 WARN org.hibernate.internal.SessionImpl [http-nio-8088-exec-8] HHH90000022: Hibernate's legacy org.hibernate.Criteria API is deprecated; use the JPA javax.persistence.criteria.CriteriaQuery instead
2020-09-30 13:53:49,731 WARN org.hibernate.internal.SessionImpl [http-nio-8088-exec-7] HHH90000022: Hibernate's legacy org.hibernate.Criteria API is deprecated; use the JPA javax.persistence.criteria.CriteriaQuery instead
2020-09-30 13:54:25,703 WARN org.hibernate.internal.SessionImpl [http-nio-8088-exec-3] HHH90000022: Hibernate's legacy org.hibernate.Criteria API is deprecated; use the JPA javax.persistence.criteria.CriteriaQuery instead
2020-09-30 13:54:25,707 WARN org.hibernate.internal.SessionImpl [http-nio-8088-exec-4] HHH90000022: Hibernate's legacy org.hibernate.Criteria API is deprecated; use the JPA javax.persistence.criteria.CriteriaQuery instead
2020-09-30 14:01:39,066 WARN org.hibernate.internal.SessionImpl [http-nio-8088-exec-1] HHH90000022: Hibernate's legacy org.hibernate.Criteria API is deprecated; use the JPA javax.persistence.criteria.CriteriaQuery instead
2020-09-30 14:01:39,317 WARN org.hibernate.internal.SessionImpl [http-nio-8088-exec-2] HHH90000022: Hibernate's legacy org.hibernate.Criteria API is deprecated; use the JPA javax.persistence.criteria.CriteriaQuery instead
2020-09-30 14:01:47,802 WARN org.hibernate.internal.SessionImpl [http-nio-8088-exec-6] HHH90000022: Hibernate's legacy org.hibernate.Criteria API is deprecated; use the JPA javax.persistence.criteria.CriteriaQuery instead
2020-09-30 14:01:47,806 WARN org.hibernate.internal.SessionImpl [http-nio-8088-exec-2] HHH90000022: Hibernate's legacy org.hibernate.Criteria API is deprecated; use the JPA javax.persistence.criteria.CriteriaQuery instead
2020-09-30 14:01:51,639 WARN org.hibernate.internal.SessionImpl [http-nio-8088-exec-5] HHH90000022: Hibernate's legacy org.hibernate.Criteria API is deprecated; use the JPA javax.persistence.criteria.CriteriaQuery instead
2020-09-30 14:01:51,653 WARN org.hibernate.internal.SessionImpl [http-nio-8088-exec-1] HHH90000022: Hibernate's legacy org.hibernate.Criteria API is deprecated; use the JPA javax.persistence.criteria.CriteriaQuery instead
2020-09-30 14:01:53,927 WARN org.hibernate.internal.SessionImpl [http-nio-8088-exec-10] HHH90000022: Hibernate's legacy org.hibernate.Criteria API is deprecated; use the JPA javax.persistence.criteria.CriteriaQuery instead
2020-09-30 14:01:53,927 WARN org.hibernate.internal.SessionImpl [http-nio-8088-exec-7] HHH90000022: Hibernate's legacy org.hibernate.Criteria API is deprecated; use the JPA javax.persistence.criteria.CriteriaQuery instead
2020-09-30 14:01:54,029 WARN org.hibernate.internal.SessionImpl [http-nio-8088-exec-3] HHH90000022: Hibernate's legacy org.hibernate.Criteria API is deprecated; use the JPA javax.persistence.criteria.CriteriaQuery instead
2020-09-30 14:01:54,035 WARN org.hibernate.internal.SessionImpl [http-nio-8088-exec-4] HHH90000022: Hibernate's legacy org.hibernate.Criteria API is deprecated; use the JPA javax.persistence.criteria.CriteriaQuery instead
2020-09-30 14:02:18,231 WARN org.hibernate.internal.SessionImpl [http-nio-8088-exec-3] HHH90000022: Hibernate's legacy org.hibernate.Criteria API is deprecated; use the JPA javax.persistence.criteria.CriteriaQuery instead
2020-09-30 14:02:18,234 WARN org.hibernate.internal.SessionImpl [http-nio-8088-exec-10] HHH90000022: Hibernate's legacy org.hibernate.Criteria API is deprecated; use the JPA javax.persistence.criteria.CriteriaQuery instead
2020-09-30 14:02:18,792 WARN org.hibernate.internal.SessionImpl [http-nio-8088-exec-4] HHH90000022: Hibernate's legacy org.hibernate.Criteria API is deprecated; use the JPA javax.persistence.criteria.CriteriaQuery instead
2020-09-30 14:02:20,459 WARN org.hibernate.internal.SessionImpl [http-nio-8088-exec-6] HHH90000022: Hibernate's legacy org.hibernate.Criteria API is deprecated; use the JPA javax.persistence.criteria.CriteriaQuery instead
2020-09-30 14:02:20,460 WARN org.hibernate.internal.SessionImpl [http-nio-8088-exec-2] HHH90000022: Hibernate's legacy org.hibernate.Criteria API is deprecated; use the JPA javax.persistence.criteria.CriteriaQuery instead
2020-09-30 14:02:20,541 WARN org.hibernate.internal.SessionImpl [http-nio-8088-exec-1] HHH90000022: Hibernate's legacy org.hibernate.Criteria API is deprecated; use the JPA javax.persistence.criteria.CriteriaQuery instead
2020-09-30 14:02:20,563 WARN org.hibernate.internal.SessionImpl [http-nio-8088-exec-5] HHH90000022: Hibernate's legacy org.hibernate.Criteria API is deprecated; use the JPA javax.persistence.criteria.CriteriaQuery instead
2020-09-30 14:02:20,567 WARN org.hibernate.internal.SessionImpl [http-nio-8088-exec-9] HHH90000022: Hibernate's legacy org.hibernate.Criteria API is deprecated; use the JPA javax.persistence.criteria.CriteriaQuery instead
2020-09-30 14:02:26,371 WARN org.hibernate.internal.SessionImpl [http-nio-8088-exec-5] HHH90000022: Hibernate's legacy org.hibernate.Criteria API is deprecated; use the JPA javax.persistence.criteria.CriteriaQuery instead
2020-09-30 14:02:26,371 WARN org.hibernate.internal.SessionImpl [http-nio-8088-exec-1] HHH90000022: Hibernate's legacy org.hibernate.Criteria API is deprecated; use the JPA javax.persistence.criteria.CriteriaQuery instead
2020-09-30 14:02:26,589 WARN org.hibernate.internal.SessionImpl [http-nio-8088-exec-8] HHH90000022: Hibernate's legacy org.hibernate.Criteria API is deprecated; use the JPA javax.persistence.criteria.CriteriaQuery instead
2020-09-30 14:02:28,531 WARN org.hibernate.internal.SessionImpl [http-nio-8088-exec-10] HHH90000022: Hibernate's legacy org.hibernate.Criteria API is deprecated; use the JPA javax.persistence.criteria.CriteriaQuery instead
2020-09-30 14:02:28,538 WARN org.hibernate.internal.SessionImpl [http-nio-8088-exec-7] HHH90000022: Hibernate's legacy org.hibernate.Criteria API is deprecated; use the JPA javax.persistence.criteria.CriteriaQuery instead
2020-09-30 14:02:32,132 WARN org.hibernate.internal.SessionImpl [http-nio-8088-exec-3] HHH90000022: Hibernate's legacy org.hibernate.Criteria API is deprecated; use the JPA javax.persistence.criteria.CriteriaQuery instead
2020-09-30 14:02:32,132 WARN org.hibernate.internal.SessionImpl [http-nio-8088-exec-5] HHH90000022: Hibernate's legacy org.hibernate.Criteria API is deprecated; use the JPA javax.persistence.criteria.CriteriaQuery instead
2020-09-30 14:02:43,800 WARN org.hibernate.internal.SessionImpl [http-nio-8088-exec-9] HHH90000022: Hibernate's legacy org.hibernate.Criteria API is deprecated; use the JPA javax.persistence.criteria.CriteriaQuery instead
2020-09-30 14:02:43,802 WARN org.hibernate.internal.SessionImpl [http-nio-8088-exec-1] HHH90000022: Hibernate's legacy org.hibernate.Criteria API is deprecated; use the JPA javax.persistence.criteria.CriteriaQuery instead
2020-09-30 14:02:43,812 WARN org.hibernate.internal.SessionImpl [http-nio-8088-exec-6] HHH90000022: Hibernate's legacy org.hibernate.Criteria API is deprecated; use the JPA javax.persistence.criteria.CriteriaQuery instead
2020-09-30 14:02:47,189 WARN org.hibernate.internal.SessionImpl [http-nio-8088-exec-3] HHH90000022: Hibernate's legacy org.hibernate.Criteria API is deprecated; use the JPA javax.persistence.criteria.CriteriaQuery instead
2020-09-30 14:02:47,191 WARN org.hibernate.internal.SessionImpl [http-nio-8088-exec-5] HHH90000022: Hibernate's legacy org.hibernate.Criteria API is deprecated; use the JPA javax.persistence.criteria.CriteriaQuery instead
2020-09-30 14:08:28,685 WARN org.hibernate.internal.SessionImpl [http-nio-8088-exec-10] HHH90000022: Hibernate's legacy org.hibernate.Criteria API is deprecated; use the JPA javax.persistence.criteria.CriteriaQuery instead
2020-09-30 14:08:28,684 WARN org.hibernate.internal.SessionImpl [http-nio-8088-exec-2] HHH90000022: Hibernate's legacy org.hibernate.Criteria API is deprecated; use the JPA javax.persistence.criteria.CriteriaQuery instead
2020-09-30 14:09:48,278 WARN org.hibernate.internal.SessionImpl [http-nio-8088-exec-5] HHH90000022: Hibernate's legacy org.hibernate.Criteria API is deprecated; use the JPA javax.persistence.criteria.CriteriaQuery instead
2020-09-30 14:09:48,278 WARN org.hibernate.internal.SessionImpl [http-nio-8088-exec-8] HHH90000022: Hibernate's legacy org.hibernate.Criteria API is deprecated; use the JPA javax.persistence.criteria.CriteriaQuery instead
2020-09-30 14:09:48,813 WARN org.hibernate.internal.SessionImpl [http-nio-8088-exec-4] HHH90000022: Hibernate's legacy org.hibernate.Criteria API is deprecated; use the JPA javax.persistence.criteria.CriteriaQuery instead
2020-09-30 14:10:07,107 WARN org.hibernate.internal.SessionImpl [http-nio-8088-exec-9] HHH90000022: Hibernate's legacy org.hibernate.Criteria API is deprecated; use the JPA javax.persistence.criteria.CriteriaQuery instead
2020-09-30 14:10:09,437 WARN org.hibernate.internal.SessionImpl [http-nio-8088-exec-1] HHH90000022: Hibernate's legacy org.hibernate.Criteria API is deprecated; use the JPA javax.persistence.criteria.CriteriaQuery instead
2020-09-30 14:10:18,028 WARN org.hibernate.internal.SessionImpl [http-nio-8088-exec-5] HHH90000022: Hibernate's legacy org.hibernate.Criteria API is deprecated; use the JPA javax.persistence.criteria.CriteriaQuery instead
2020-09-30 14:10:23,207 WARN org.hibernate.internal.SessionImpl [http-nio-8088-exec-10] HHH90000022: Hibernate's legacy org.hibernate.Criteria API is deprecated; use the JPA javax.persistence.criteria.CriteriaQuery instead
2020-09-30 14:10:25,353 WARN org.hibernate.internal.SessionImpl [http-nio-8088-exec-2] HHH90000022: Hibernate's legacy org.hibernate.Criteria API is deprecated; use the JPA javax.persistence.criteria.CriteriaQuery instead
2020-09-30 14:10:27,844 WARN org.hibernate.internal.SessionImpl [http-nio-8088-exec-3] HHH90000022: Hibernate's legacy org.hibernate.Criteria API is deprecated; use the JPA javax.persistence.criteria.CriteriaQuery instead
2020-09-30 14:10:27,853 WARN org.hibernate.internal.SessionImpl [http-nio-8088-exec-1] HHH90000022: Hibernate's legacy org.hibernate.Criteria API is deprecated; use the JPA javax.persistence.criteria.CriteriaQuery instead
2020-09-30 14:10:46,437 WARN org.hibernate.internal.SessionImpl [http-nio-8088-exec-2] HHH90000022: Hibernate's legacy org.hibernate.Criteria API is deprecated; use the JPA javax.persistence.criteria.CriteriaQuery instead
2020-09-30 14:10:46,444 WARN org.hibernate.internal.SessionImpl [http-nio-8088-exec-6] HHH90000022: Hibernate's legacy org.hibernate.Criteria API is deprecated; use the JPA javax.persistence.criteria.CriteriaQuery instead
2020-09-30 14:10:46,445 WARN org.hibernate.internal.SessionImpl [http-nio-8088-exec-9] HHH90000022: Hibernate's legacy org.hibernate.Criteria API is deprecated; use the JPA javax.persistence.criteria.CriteriaQuery instead
2020-09-30 14:12:28,908 WARN org.hibernate.internal.SessionImpl [http-nio-8088-exec-10] HHH90000022: Hibernate's legacy org.hibernate.Criteria API is deprecated; use the JPA javax.persistence.criteria.CriteriaQuery instead
2020-09-30 14:12:28,907 WARN org.hibernate.internal.SessionImpl [http-nio-8088-exec-4] HHH90000022: Hibernate's legacy org.hibernate.Criteria API is deprecated; use the JPA javax.persistence.criteria.CriteriaQuery instead
2020-09-30 14:13:13,914 WARN org.hibernate.internal.SessionImpl [http-nio-8088-exec-5] HHH90000022: Hibernate's legacy org.hibernate.Criteria API is deprecated; use the JPA javax.persistence.criteria.CriteriaQuery instead
2020-09-30 14:13:13,914 WARN org.hibernate.internal.SessionImpl [http-nio-8088-exec-3] HHH90000022: Hibernate's legacy org.hibernate.Criteria API is deprecated; use the JPA javax.persistence.criteria.CriteriaQuery instead
2020-09-30 14:13:14,576 WARN org.hibernate.internal.SessionImpl [http-nio-8088-exec-8] HHH90000022: Hibernate's legacy org.hibernate.Criteria API is deprecated; use the JPA javax.persistence.criteria.CriteriaQuery instead
2020-09-30 14:13:21,544 WARN org.hibernate.internal.SessionImpl [http-nio-8088-exec-1] HHH90000022: Hibernate's legacy org.hibernate.Criteria API is deprecated; use the JPA javax.persistence.criteria.CriteriaQuery instead
2020-09-30 14:13:21,559 WARN org.hibernate.internal.SessionImpl [http-nio-8088-exec-7] HHH90000022: Hibernate's legacy org.hibernate.Criteria API is deprecated; use the JPA javax.persistence.criteria.CriteriaQuery instead
2020-09-30 14:20:06,005 WARN org.hibernate.internal.SessionImpl [http-nio-8088-exec-4] HHH90000022: Hibernate's legacy org.hibernate.Criteria API is deprecated; use the JPA javax.persistence.criteria.CriteriaQuery instead
2020-09-30 14:20:06,011 WARN org.hibernate.internal.SessionImpl [http-nio-8088-exec-10] HHH90000022: Hibernate's legacy org.hibernate.Criteria API is deprecated; use the JPA javax.persistence.criteria.CriteriaQuery instead
2020-09-30 14:20:30,120 WARN org.hibernate.internal.SessionImpl [http-nio-8088-exec-7] HHH90000022: Hibernate's legacy org.hibernate.Criteria API is deprecated; use the JPA javax.persistence.criteria.CriteriaQuery instead
2020-09-30 14:26:47,335 WARN org.hibernate.internal.SessionImpl [http-nio-8088-exec-4] HHH90000022: Hibernate's legacy org.hibernate.Criteria API is deprecated; use the JPA javax.persistence.criteria.CriteriaQuery instead
2020-09-30 14:26:47,335 WARN org.hibernate.internal.SessionImpl [http-nio-8088-exec-8] HHH90000022: Hibernate's legacy org.hibernate.Criteria API is deprecated; use the JPA javax.persistence.criteria.CriteriaQuery instead
2020-09-30 14:26:55,278 WARN org.hibernate.internal.SessionImpl [http-nio-8088-exec-5] HHH90000022: Hibernate's legacy org.hibernate.Criteria API is deprecated; use the JPA javax.persistence.criteria.CriteriaQuery instead
2020-09-30 14:26:55,279 WARN org.hibernate.internal.SessionImpl [http-nio-8088-exec-2] HHH90000022: Hibernate's legacy org.hibernate.Criteria API is deprecated; use the JPA javax.persistence.criteria.CriteriaQuery instead
2020-09-30 14:26:55,280 WARN org.hibernate.internal.SessionImpl [http-nio-8088-exec-3] HHH90000022: Hibernate's legacy org.hibernate.Criteria API is deprecated; use the JPA javax.persistence.criteria.CriteriaQuery instead
2020-09-30 14:27:05,069 WARN org.hibernate.internal.SessionImpl [http-nio-8088-exec-7] HHH90000022: Hibernate's legacy org.hibernate.Criteria API is deprecated; use the JPA javax.persistence.criteria.CriteriaQuery instead
2020-09-30 14:27:05,084 WARN org.hibernate.internal.SessionImpl [http-nio-8088-exec-9] HHH90000022: Hibernate's legacy org.hibernate.Criteria API is deprecated; use the JPA javax.persistence.criteria.CriteriaQuery instead
2020-09-30 14:27:10,126 WARN org.hibernate.internal.SessionImpl [http-nio-8088-exec-4] HHH90000022: Hibernate's legacy org.hibernate.Criteria API is deprecated; use the JPA javax.persistence.criteria.CriteriaQuery instead
2020-09-30 14:27:10,126 WARN org.hibernate.internal.SessionImpl [http-nio-8088-exec-6] HHH90000022: Hibernate's legacy org.hibernate.Criteria API is deprecated; use the JPA javax.persistence.criteria.CriteriaQuery instead
2020-09-30 14:27:10,526 WARN org.hibernate.internal.SessionImpl [http-nio-8088-exec-10] HHH90000022: Hibernate's legacy org.hibernate.Criteria API is deprecated; use the JPA javax.persistence.criteria.CriteriaQuery instead
2020-09-30 14:35:27,247 WARN org.hibernate.internal.SessionImpl [http-nio-8088-exec-2] HHH90000022: Hibernate's legacy org.hibernate.Criteria API is deprecated; use the JPA javax.persistence.criteria.CriteriaQuery instead
2020-09-30 14:35:27,247 WARN org.hibernate.internal.SessionImpl [http-nio-8088-exec-8] HHH90000022: Hibernate's legacy org.hibernate.Criteria API is deprecated; use the JPA javax.persistence.criteria.CriteriaQuery instead
2020-09-30 14:37:48,576 WARN org.hibernate.internal.SessionImpl [http-nio-8088-exec-7] HHH90000022: Hibernate's legacy org.hibernate.Criteria API is deprecated; use the JPA javax.persistence.criteria.CriteriaQuery instead
2020-09-30 14:37:48,584 WARN org.hibernate.internal.SessionImpl [http-nio-8088-exec-9] HHH90000022: Hibernate's legacy org.hibernate.Criteria API is deprecated; use the JPA javax.persistence.criteria.CriteriaQuery instead
2020-09-30 14:43:46,323 WARN org.hibernate.internal.SessionImpl [http-nio-8088-exec-6] HHH90000022: Hibernate's legacy org.hibernate.Criteria API is deprecated; use the JPA javax.persistence.criteria.CriteriaQuery instead
2020-09-30 14:43:46,322 WARN org.hibernate.internal.SessionImpl [http-nio-8088-exec-4] HHH90000022: Hibernate's legacy org.hibernate.Criteria API is deprecated; use the JPA javax.persistence.criteria.CriteriaQuery instead
2020-09-30 14:43:52,717 WARN org.hibernate.internal.SessionImpl [http-nio-8088-exec-7] HHH90000022: Hibernate's legacy org.hibernate.Criteria API is deprecated; use the JPA javax.persistence.criteria.CriteriaQuery instead
2020-09-30 14:43:52,720 WARN org.hibernate.internal.SessionImpl [http-nio-8088-exec-9] HHH90000022: Hibernate's legacy org.hibernate.Criteria API is deprecated; use the JPA javax.persistence.criteria.CriteriaQuery instead
2020-09-30 14:44:03,142 WARN org.hibernate.internal.SessionImpl [http-nio-8088-exec-6] HHH90000022: Hibernate's legacy org.hibernate.Criteria API is deprecated; use the JPA javax.persistence.criteria.CriteriaQuery instead
2020-09-30 14:44:03,142 WARN org.hibernate.internal.SessionImpl [http-nio-8088-exec-4] HHH90000022: Hibernate's legacy org.hibernate.Criteria API is deprecated; use the JPA javax.persistence.criteria.CriteriaQuery instead
2020-09-30 14:44:09,702 WARN org.hibernate.internal.SessionImpl [http-nio-8088-exec-5] HHH90000022: Hibernate's legacy org.hibernate.Criteria API is deprecated; use the JPA javax.persistence.criteria.CriteriaQuery instead
2020-09-30 14:44:09,705 WARN org.hibernate.internal.SessionImpl [http-nio-8088-exec-3] HHH90000022: Hibernate's legacy org.hibernate.Criteria API is deprecated; use the JPA javax.persistence.criteria.CriteriaQuery instead
2020-09-30 14:45:03,749 WARN org.hibernate.internal.SessionImpl [http-nio-8088-exec-10] HHH90000022: Hibernate's legacy org.hibernate.Criteria API is deprecated; use the JPA javax.persistence.criteria.CriteriaQuery instead
2020-09-30 14:45:03,751 WARN org.hibernate.internal.SessionImpl [http-nio-8088-exec-1] HHH90000022: Hibernate's legacy org.hibernate.Criteria API is deprecated; use the JPA javax.persistence.criteria.CriteriaQuery instead
2020-09-30 14:45:42,172 INFO org.springframework.boot.admin.SpringApplicationAdminMXBeanRegistrar$SpringApplicationAdmin [RMI TCP Connection(2)-127.0.0.1] Application shutdown requested.
2020-09-30 14:45:42,344 INFO org.springframework.scheduling.concurrent.ExecutorConfigurationSupport [RMI TCP Connection(2)-127.0.0.1] Shutting down ExecutorService 'applicationTaskExecutor'
2020-09-30 14:45:42,384 INFO com.zaxxer.hikari.HikariDataSource [RMI TCP Connection(2)-127.0.0.1] HikariPool-1 - Shutdown initiated...
2020-09-30 14:45:42,590 INFO com.zaxxer.hikari.HikariDataSource [RMI TCP Connection(2)-127.0.0.1] HikariPool-1 - Shutdown completed.
2020-09-30 14:45:47,542 INFO org.springframework.boot.StartupInfoLogger [restartedMain] Starting ToeicApplication on DESKTOP-GDE00QD with PID 8456 (D:\DA_WEB_TOEIC\toeic_service\target\classes started by Tung in D:\DA_WEB_TOEIC\toeic_service)
2020-09-30 14:45:47,546 INFO org.springframework.boot.SpringApplication [restartedMain] No active profile set, falling back to default profiles: default
2020-09-30 14:45:47,610 INFO org.springframework.boot.logging.DeferredLog [restartedMain] The Class-Path manifest attribute in D:\DA_WEB_TOEIC\teoic_lib\repo\org\glassfish\jaxb\jaxb-runtime\2.3.2\jaxb-runtime-2.3.2.jar referenced one or more files that do not exist: file:/D:/DA_WEB_TOEIC/teoic_lib/repo/org/glassfish/jaxb/jaxb-runtime/2.3.2/jakarta.xml.bind-api-2.3.2.jar,file:/D:/DA_WEB_TOEIC/teoic_lib/repo/org/glassfish/jaxb/jaxb-runtime/2.3.2/txw2-2.3.2.jar,file:/D:/DA_WEB_TOEIC/teoic_lib/repo/org/glassfish/jaxb/jaxb-runtime/2.3.2/istack-commons-runtime-3.0.8.jar,file:/D:/DA_WEB_TOEIC/teoic_lib/repo/org/glassfish/jaxb/jaxb-runtime/2.3.2/stax-ex-1.8.1.jar,file:/D:/DA_WEB_TOEIC/teoic_lib/repo/org/glassfish/jaxb/jaxb-runtime/2.3.2/FastInfoset-1.2.16.jar,file:/D:/DA_WEB_TOEIC/teoic_lib/repo/org/glassfish/jaxb/jaxb-runtime/2.3.2/jakarta.activation-api-1.2.1.jar
2020-09-30 14:45:47,611 INFO org.springframework.boot.logging.DeferredLog [restartedMain] The Class-Path manifest attribute in D:\DA_WEB_TOEIC\teoic_lib\repo\com\oracle\ojdbc\ojdbc8\19.3.0.0\ojdbc8-19.3.0.0.jar referenced one or more files that do not exist: file:/D:/DA_WEB_TOEIC/teoic_lib/repo/com/oracle/ojdbc/ojdbc8/19.3.0.0/oraclepki.jar
2020-09-30 14:45:47,611 INFO org.springframework.boot.logging.DeferredLog [restartedMain] The Class-Path manifest attribute in D:\DA_WEB_TOEIC\teoic_lib\repo\com\oracle\ojdbc\oraclepki\19.3.0.0\oraclepki-19.3.0.0.jar referenced one or more files that do not exist: file:/D:/DA_WEB_TOEIC/teoic_lib/repo/com/oracle/ojdbc/oraclepki/19.3.0.0/osdt_core.jar,file:/D:/DA_WEB_TOEIC/teoic_lib/repo/com/oracle/ojdbc/oraclepki/19.3.0.0/osdt_cert.jar,file:/D:/DA_WEB_TOEIC/teoic_lib/repo/com/oracle/ojdbc/oraclepki/oracle.osdt/osdt_core.jar,file:/D:/DA_WEB_TOEIC/teoic_lib/repo/com/oracle/ojdbc/oraclepki/oracle.osdt/osdt_cert.jar
2020-09-30 14:45:47,611 INFO org.springframework.boot.logging.DeferredLog [restartedMain] The Class-Path manifest attribute in D:\DA_WEB_TOEIC\teoic_lib\repo\com\google\oauth-client\google-oauth-client-java6\1.11.0-beta\google-oauth-client-java6-1.11.0-beta.jar referenced one or more files that do not exist: file:/D:/DA_WEB_TOEIC/teoic_lib/repo/com/google/oauth-client/google-oauth-client-java6/1.11.0-beta/google-oauth-client-1.11.0-beta.jar,file:/D:/DA_WEB_TOEIC/teoic_lib/repo/com/google/oauth-client/google-oauth-client-java6/1.11.0-beta/google-http-client-1.11.0-beta.jar,file:/D:/DA_WEB_TOEIC/teoic_lib/repo/com/google/oauth-client/google-oauth-client-java6/1.11.0-beta/httpclient-4.0.3.jar,file:/D:/DA_WEB_TOEIC/teoic_lib/repo/com/google/oauth-client/google-oauth-client-java6/1.11.0-beta/httpcore-4.0.1.jar,file:/D:/DA_WEB_TOEIC/teoic_lib/repo/com/google/oauth-client/google-oauth-client-java6/1.11.0-beta/commons-logging-1.1.1.jar,file:/D:/DA_WEB_TOEIC/teoic_lib/repo/com/google/oauth-client/google-oauth-client-java6/1.11.0-beta/xpp3-1.1.4c.jar,file:/D:/DA_WEB_TOEIC/teoic_lib/repo/com/google/oauth-client/google-oauth-client-java6/1.11.0-beta/jsr305-1.3.9.jar,file:/D:/DA_WEB_TOEIC/teoic_lib/repo/com/google/oauth-client/google-oauth-client-java6/1.11.0-beta/guava-11.0.1.jar
2020-09-30 14:45:47,612 INFO org.springframework.boot.logging.DeferredLog [restartedMain] The Class-Path manifest attribute in D:\DA_WEB_TOEIC\teoic_lib\repo\com\sun\xml\bind\jaxb-impl\2.1.13\jaxb-impl-2.1.13.jar referenced one or more files that do not exist: file:/D:/DA_WEB_TOEIC/teoic_lib/repo/com/sun/xml/bind/jaxb-impl/2.1.13/jaxb-api.jar,file:/D:/DA_WEB_TOEIC/teoic_lib/repo/com/sun/xml/bind/jaxb-impl/2.1.13/activation.jar,file:/D:/DA_WEB_TOEIC/teoic_lib/repo/com/sun/xml/bind/jaxb-impl/2.1.13/jsr173_1.0_api.jar,file:/D:/DA_WEB_TOEIC/teoic_lib/repo/com/sun/xml/bind/jaxb-impl/2.1.13/jaxb1-impl.jar
2020-09-30 14:45:47,612 INFO org.springframework.boot.logging.DeferredLog [restartedMain] Devtools property defaults active! Set 'spring.devtools.add-properties' to 'false' to disable
2020-09-30 14:45:47,612 INFO org.springframework.boot.logging.DeferredLog [restartedMain] For additional web related logging consider setting the 'logging.level.web' property to 'DEBUG'
2020-09-30 14:45:48,658 INFO org.springframework.data.repository.config.RepositoryConfigurationDelegate [restartedMain] Bootstrapping Spring Data JPA repositories in DEFAULT mode.
2020-09-30 14:45:48,698 INFO org.springframework.data.repository.config.RepositoryConfigurationDelegate [restartedMain] Finished Spring Data repository scanning in 30ms. Found 0 JPA repository interfaces.
2020-09-30 14:45:49,170 INFO org.springframework.context.support.PostProcessorRegistrationDelegate$BeanPostProcessorChecker [restartedMain] Bean 'org.springframework.ws.config.annotation.DelegatingWsConfiguration' of type [org.springframework.ws.config.annotation.DelegatingWsConfiguration$$EnhancerBySpringCGLIB$$5cffe852] is not eligible for getting processed by all BeanPostProcessors (for example: not eligible for auto-proxying)
2020-09-30 14:45:49,217 INFO org.springframework.ws.soap.addressing.server.AbstractAddressingEndpointMapping [restartedMain] Supporting [WS-Addressing August 2004, WS-Addressing 1.0]
2020-09-30 14:45:49,254 INFO org.springframework.context.support.PostProcessorRegistrationDelegate$BeanPostProcessorChecker [restartedMain] Bean 'org.springframework.security.config.annotation.configuration.ObjectPostProcessorConfiguration' of type [org.springframework.security.config.annotation.configuration.ObjectPostProcessorConfiguration] is not eligible for getting processed by all BeanPostProcessors (for example: not eligible for auto-proxying)
2020-09-30 14:45:49,256 INFO org.springframework.context.support.PostProcessorRegistrationDelegate$BeanPostProcessorChecker [restartedMain] Bean 'objectPostProcessor' of type [org.springframework.security.config.annotation.configuration.AutowireBeanFactoryObjectPostProcessor] is not eligible for getting processed by all BeanPostProcessors (for example: not eligible for auto-proxying)
2020-09-30 14:45:49,259 INFO org.springframework.context.support.PostProcessorRegistrationDelegate$BeanPostProcessorChecker [restartedMain] Bean 'org.springframework.security.access.expression.method.DefaultMethodSecurityExpressionHandler@c76a49f' of type [org.springframework.security.access.expression.method.DefaultMethodSecurityExpressionHandler] is not eligible for getting processed by all BeanPostProcessors (for example: not eligible for auto-proxying)
2020-09-30 14:45:49,260 INFO org.springframework.context.support.PostProcessorRegistrationDelegate$BeanPostProcessorChecker [restartedMain] Bean 'org.springframework.security.config.annotation.method.configuration.GlobalMethodSecurityConfiguration' of type [org.springframework.security.config.annotation.method.configuration.GlobalMethodSecurityConfiguration] is not eligible for getting processed by all BeanPostProcessors (for example: not eligible for auto-proxying)
2020-09-30 14:45:49,262 INFO org.springframework.context.support.PostProcessorRegistrationDelegate$BeanPostProcessorChecker [restartedMain] Bean 'methodSecurityMetadataSource' of type [org.springframework.security.access.method.DelegatingMethodSecurityMetadataSource] is not eligible for getting processed by all BeanPostProcessors (for example: not eligible for auto-proxying)
2020-09-30 14:45:49,577 INFO org.springframework.boot.web.embedded.tomcat.TomcatWebServer [restartedMain] Tomcat initialized with port(s): 8088 (http)
2020-09-30 14:45:49,585 INFO org.apache.juli.logging.DirectJDKLog [restartedMain] Starting service [Tomcat]
2020-09-30 14:45:49,585 INFO org.apache.juli.logging.DirectJDKLog [restartedMain] Starting Servlet engine: [Apache Tomcat/9.0.33]
2020-09-30 14:45:49,688 INFO org.apache.juli.logging.DirectJDKLog [restartedMain] Initializing Spring embedded WebApplicationContext
2020-09-30 14:45:49,689 INFO org.springframework.boot.web.servlet.context.ServletWebServerApplicationContext [restartedMain] Root WebApplicationContext: initialization completed in 2076 ms
2020-09-30 14:45:50,000 INFO org.hibernate.Version [restartedMain] HHH000412: Hibernate ORM core version 5.4.12.Final
2020-09-30 14:45:50,153 INFO org.hibernate.annotations.common.reflection.java.JavaReflectionManager [restartedMain] HCANN000001: Hibernate Commons Annotations {5.1.0.Final}
2020-09-30 14:45:50,259 WARN com.zaxxer.hikari.HikariConfig [restartedMain] HikariPool-1 - idleTimeout has been set but has no effect because the pool is operating as a fixed size pool.
2020-09-30 14:45:50,260 INFO com.zaxxer.hikari.HikariDataSource [restartedMain] HikariPool-1 - Starting...
2020-09-30 14:45:50,261 WARN com.zaxxer.hikari.util.DriverDataSource [restartedMain] Registered driver with driverClassName=oracle.jdbc.driver.OracleDriver was not found, trying direct instantiation.
2020-09-30 14:45:51,358 INFO com.zaxxer.hikari.HikariDataSource [restartedMain] HikariPool-1 - Start completed.
2020-09-30 14:45:51,379 INFO org.hibernate.dialect.Dialect [restartedMain] HHH000400: Using dialect: org.hibernate.dialect.Oracle10gDialect
2020-09-30 14:45:53,855 INFO org.hibernate.engine.transaction.jta.platform.internal.JtaPlatformInitiator [restartedMain] HHH000490: Using JtaPlatform implementation: [org.hibernate.engine.transaction.jta.platform.internal.NoJtaPlatform]
2020-09-30 14:45:54,492 INFO springfox.documentation.spring.web.PropertySourcedRequestMappingHandlerMapping [restartedMain] Mapped URL path [/v2/api-docs] onto method [springfox.documentation.swagger2.web.Swagger2Controller#getDocumentation(String, HttpServletRequest)]
2020-09-30 14:45:54,606 INFO org.springframework.security.web.DefaultSecurityFilterChain [restartedMain] Creating filter chain: any request, [org.springframework.security.web.context.request.async.WebAsyncManagerIntegrationFilter@5bf4a3d1, org.springframework.security.web.context.SecurityContextPersistenceFilter@355f6528, org.springframework.security.web.header.HeaderWriterFilter@6f4713c5, org.springframework.web.filter.CorsFilter@7c97e38f, org.springframework.security.web.authentication.logout.LogoutFilter@be22348, com.migi.toeic.authen.JwtRequestFilter@19f72fc4, org.springframework.security.web.savedrequest.RequestCacheAwareFilter@40a3af09, org.springframework.security.web.servletapi.SecurityContextHolderAwareRequestFilter@3eb6eb6b, org.springframework.security.web.authentication.AnonymousAuthenticationFilter@3120cbc6, org.springframework.security.web.session.SessionManagementFilter@67bbf09, org.springframework.security.web.access.ExceptionTranslationFilter@75990e83, org.springframework.security.web.access.intercept.FilterSecurityInterceptor@2cd5b897]
2020-09-30 14:45:54,666 INFO org.springframework.scheduling.concurrent.ExecutorConfigurationSupport [restartedMain] Initializing ExecutorService 'applicationTaskExecutor'
2020-09-30 14:45:54,710 INFO org.springframework.boot.devtools.autoconfigure.OptionalLiveReloadServer [restartedMain] LiveReload server is running on port 35729
2020-09-30 14:45:54,870 INFO springfox.documentation.spring.web.plugins.DocumentationPluginsBootstrapper [restartedMain] Context refreshed
2020-09-30 14:45:54,883 INFO springfox.documentation.spring.web.plugins.DocumentationPluginsBootstrapper [restartedMain] Found 1 custom documentation plugin(s)
2020-09-30 14:45:55,137 INFO springfox.documentation.spring.web.scanners.ApiListingReferenceScanner [restartedMain] Scanning for api listing references
2020-09-30 14:45:55,276 INFO springfox.documentation.spring.web.readers.operation.CachingOperationNameGenerator [restartedMain] Generating unique operation named: createUsingPOST_1
2020-09-30 14:45:55,310 INFO springfox.documentation.spring.web.readers.operation.CachingOperationNameGenerator [restartedMain] Generating unique operation named: deleteUsingPOST_1
2020-09-30 14:45:55,314 INFO springfox.documentation.spring.web.readers.operation.CachingOperationNameGenerator [restartedMain] Generating unique operation named: doSearchUsingPOST_1
2020-09-30 14:45:55,321 INFO springfox.documentation.spring.web.readers.operation.CachingOperationNameGenerator [restartedMain] Generating unique operation named: getDetailUsingPOST_1
2020-09-30 14:45:55,333 INFO springfox.documentation.spring.web.readers.operation.CachingOperationNameGenerator [restartedMain] Generating unique operation named: updateUsingPOST_1
2020-09-30 14:45:55,358 INFO springfox.documentation.spring.web.readers.operation.CachingOperationNameGenerator [restartedMain] Generating unique operation named: doSearchUsingPOST_2
2020-09-30 14:45:55,372 INFO springfox.documentation.spring.web.readers.operation.CachingOperationNameGenerator [restartedMain] Generating unique operation named: doSearchUsingPOST_3
2020-09-30 14:45:55,381 INFO springfox.documentation.spring.web.readers.operation.CachingOperationNameGenerator [restartedMain] Generating unique operation named: getDetailUsingPOST_2
2020-09-30 14:45:55,401 INFO springfox.documentation.spring.web.readers.operation.CachingOperationNameGenerator [restartedMain] Generating unique operation named: createUsingPOST_2
2020-09-30 14:45:55,404 INFO springfox.documentation.spring.web.readers.operation.CachingOperationNameGenerator [restartedMain] Generating unique operation named: deleteUsingPOST_2
2020-09-30 14:45:55,409 INFO springfox.documentation.spring.web.readers.operation.CachingOperationNameGenerator [restartedMain] Generating unique operation named: getDetailUsingPOST_3
2020-09-30 14:45:55,412 INFO springfox.documentation.spring.web.readers.operation.CachingOperationNameGenerator [restartedMain] Generating unique operation named: updateUsingPOST_2
2020-09-30 14:45:55,418 INFO springfox.documentation.spring.web.readers.operation.CachingOperationNameGenerator [restartedMain] Generating unique operation named: createUsingPOST_3
2020-09-30 14:45:55,421 INFO springfox.documentation.spring.web.readers.operation.CachingOperationNameGenerator [restartedMain] Generating unique operation named: deleteUsingPOST_3
2020-09-30 14:45:55,426 INFO springfox.documentation.spring.web.readers.operation.CachingOperationNameGenerator [restartedMain] Generating unique operation named: getDetailUsingPOST_4
2020-09-30 14:45:55,431 INFO springfox.documentation.spring.web.readers.operation.CachingOperationNameGenerator [restartedMain] Generating unique operation named: updateUsingPOST_3
2020-09-30 14:45:55,436 INFO springfox.documentation.spring.web.readers.operation.CachingOperationNameGenerator [restartedMain] Generating unique operation named: createUsingPOST_4
2020-09-30 14:45:55,438 INFO springfox.documentation.spring.web.readers.operation.CachingOperationNameGenerator [restartedMain] Generating unique operation named: deleteUsingPOST_4
2020-09-30 14:45:55,442 INFO springfox.documentation.spring.web.readers.operation.CachingOperationNameGenerator [restartedMain] Generating unique operation named: getDetailUsingPOST_5
2020-09-30 14:45:55,444 INFO springfox.documentation.spring.web.readers.operation.CachingOperationNameGenerator [restartedMain] Generating unique operation named: updateUsingPOST_4
2020-09-30 14:45:55,448 INFO springfox.documentation.spring.web.readers.operation.CachingOperationNameGenerator [restartedMain] Generating unique operation named: createUsingPOST_5
2020-09-30 14:45:55,450 INFO springfox.documentation.spring.web.readers.operation.CachingOperationNameGenerator [restartedMain] Generating unique operation named: deleteUsingPOST_5
2020-09-30 14:45:55,458 INFO springfox.documentation.spring.web.readers.operation.CachingOperationNameGenerator [restartedMain] Generating unique operation named: getDetailUsingPOST_6
2020-09-30 14:45:55,463 INFO springfox.documentation.spring.web.readers.operation.CachingOperationNameGenerator [restartedMain] Generating unique operation named: updateUsingPOST_5
2020-09-30 14:45:55,475 INFO springfox.documentation.spring.web.readers.operation.CachingOperationNameGenerator [restartedMain] Generating unique operation named: doSearchUsingPOST_4
2020-09-30 14:45:55,482 INFO springfox.documentation.spring.web.readers.operation.CachingOperationNameGenerator [restartedMain] Generating unique operation named: getDetailUsingPOST_7
2020-09-30 14:45:55,524 INFO springfox.documentation.spring.web.readers.operation.CachingOperationNameGenerator [restartedMain] Generating unique operation named: createUsingPOST_6
2020-09-30 14:45:55,527 INFO springfox.documentation.spring.web.readers.operation.CachingOperationNameGenerator [restartedMain] Generating unique operation named: deleteUsingPOST_6
2020-09-30 14:45:55,531 INFO springfox.documentation.spring.web.readers.operation.CachingOperationNameGenerator [restartedMain] Generating unique operation named: doSearchUsingPOST_5
2020-09-30 14:45:55,534 INFO springfox.documentation.spring.web.readers.operation.CachingOperationNameGenerator [restartedMain] Generating unique operation named: getDetailUsingPOST_8
2020-09-30 14:45:55,552 INFO springfox.documentation.spring.web.readers.operation.CachingOperationNameGenerator [restartedMain] Generating unique operation named: updateUsingPOST_6
2020-09-30 14:45:55,560 INFO springfox.documentation.spring.web.readers.operation.CachingOperationNameGenerator [restartedMain] Generating unique operation named: doSearchUsingPOST_6
2020-09-30 14:45:55,563 INFO springfox.documentation.spring.web.readers.operation.CachingOperationNameGenerator [restartedMain] Generating unique operation named: getDetailUsingPOST_9
2020-09-30 14:45:55,621 INFO org.springframework.boot.web.embedded.tomcat.TomcatWebServer [restartedMain] Tomcat started on port(s): 8088 (http) with context path ''
2020-09-30 14:45:55,624 INFO org.springframework.boot.StartupInfoLogger [restartedMain] Started ToeicApplication in 8.42 seconds (JVM running for 9.61)
2020-09-30 14:47:05,906 INFO org.apache.juli.logging.DirectJDKLog [http-nio-8088-exec-1] Initializing Spring DispatcherServlet 'dispatcherServlet'
2020-09-30 14:47:05,907 INFO org.springframework.web.servlet.FrameworkServlet [http-nio-8088-exec-1] Initializing Servlet 'dispatcherServlet'
2020-09-30 14:47:05,919 INFO org.springframework.web.servlet.FrameworkServlet [http-nio-8088-exec-1] Completed initialization in 12 ms
2020-09-30 15:17:13,670 INFO org.springframework.boot.StartupInfoLogger [restartedMain] Starting ToeicApplication on DESKTOP-GDE00QD with PID 8960 (D:\DA_WEB_TOEIC\toeic_service\target\classes started by Tung in D:\DA_WEB_TOEIC\toeic_service)
2020-09-30 15:17:13,673 INFO org.springframework.boot.SpringApplication [restartedMain] No active profile set, falling back to default profiles: default
2020-09-30 15:17:13,731 INFO org.springframework.boot.logging.DeferredLog [restartedMain] The Class-Path manifest attribute in D:\DA_WEB_TOEIC\teoic_lib\repo\org\glassfish\jaxb\jaxb-runtime\2.3.2\jaxb-runtime-2.3.2.jar referenced one or more files that do not exist: file:/D:/DA_WEB_TOEIC/teoic_lib/repo/org/glassfish/jaxb/jaxb-runtime/2.3.2/jakarta.xml.bind-api-2.3.2.jar,file:/D:/DA_WEB_TOEIC/teoic_lib/repo/org/glassfish/jaxb/jaxb-runtime/2.3.2/txw2-2.3.2.jar,file:/D:/DA_WEB_TOEIC/teoic_lib/repo/org/glassfish/jaxb/jaxb-runtime/2.3.2/istack-commons-runtime-3.0.8.jar,file:/D:/DA_WEB_TOEIC/teoic_lib/repo/org/glassfish/jaxb/jaxb-runtime/2.3.2/stax-ex-1.8.1.jar,file:/D:/DA_WEB_TOEIC/teoic_lib/repo/org/glassfish/jaxb/jaxb-runtime/2.3.2/FastInfoset-1.2.16.jar,file:/D:/DA_WEB_TOEIC/teoic_lib/repo/org/glassfish/jaxb/jaxb-runtime/2.3.2/jakarta.activation-api-1.2.1.jar
2020-09-30 15:17:13,732 INFO org.springframework.boot.logging.DeferredLog [restartedMain] The Class-Path manifest attribute in D:\DA_WEB_TOEIC\teoic_lib\repo\com\oracle\ojdbc\ojdbc8\19.3.0.0\ojdbc8-19.3.0.0.jar referenced one or more files that do not exist: file:/D:/DA_WEB_TOEIC/teoic_lib/repo/com/oracle/ojdbc/ojdbc8/19.3.0.0/oraclepki.jar
2020-09-30 15:17:13,732 INFO org.springframework.boot.logging.DeferredLog [restartedMain] The Class-Path manifest attribute in D:\DA_WEB_TOEIC\teoic_lib\repo\com\oracle\ojdbc\oraclepki\19.3.0.0\oraclepki-19.3.0.0.jar referenced one or more files that do not exist: file:/D:/DA_WEB_TOEIC/teoic_lib/repo/com/oracle/ojdbc/oraclepki/19.3.0.0/osdt_core.jar,file:/D:/DA_WEB_TOEIC/teoic_lib/repo/com/oracle/ojdbc/oraclepki/19.3.0.0/osdt_cert.jar,file:/D:/DA_WEB_TOEIC/teoic_lib/repo/com/oracle/ojdbc/oraclepki/oracle.osdt/osdt_core.jar,file:/D:/DA_WEB_TOEIC/teoic_lib/repo/com/oracle/ojdbc/oraclepki/oracle.osdt/osdt_cert.jar
2020-09-30 15:17:13,733 INFO org.springframework.boot.logging.DeferredLog [restartedMain] The Class-Path manifest attribute in D:\DA_WEB_TOEIC\teoic_lib\repo\com\google\oauth-client\google-oauth-client-java6\1.11.0-beta\google-oauth-client-java6-1.11.0-beta.jar referenced one or more files that do not exist: file:/D:/DA_WEB_TOEIC/teoic_lib/repo/com/google/oauth-client/google-oauth-client-java6/1.11.0-beta/google-oauth-client-1.11.0-beta.jar,file:/D:/DA_WEB_TOEIC/teoic_lib/repo/com/google/oauth-client/google-oauth-client-java6/1.11.0-beta/google-http-client-1.11.0-beta.jar,file:/D:/DA_WEB_TOEIC/teoic_lib/repo/com/google/oauth-client/google-oauth-client-java6/1.11.0-beta/httpclient-4.0.3.jar,file:/D:/DA_WEB_TOEIC/teoic_lib/repo/com/google/oauth-client/google-oauth-client-java6/1.11.0-beta/httpcore-4.0.1.jar,file:/D:/DA_WEB_TOEIC/teoic_lib/repo/com/google/oauth-client/google-oauth-client-java6/1.11.0-beta/commons-logging-1.1.1.jar,file:/D:/DA_WEB_TOEIC/teoic_lib/repo/com/google/oauth-client/google-oauth-client-java6/1.11.0-beta/xpp3-1.1.4c.jar,file:/D:/DA_WEB_TOEIC/teoic_lib/repo/com/google/oauth-client/google-oauth-client-java6/1.11.0-beta/jsr305-1.3.9.jar,file:/D:/DA_WEB_TOEIC/teoic_lib/repo/com/google/oauth-client/google-oauth-client-java6/1.11.0-beta/guava-11.0.1.jar
2020-09-30 15:17:13,733 INFO org.springframework.boot.logging.DeferredLog [restartedMain] The Class-Path manifest attribute in D:\DA_WEB_TOEIC\teoic_lib\repo\com\sun\xml\bind\jaxb-impl\2.1.13\jaxb-impl-2.1.13.jar referenced one or more files that do not exist: file:/D:/DA_WEB_TOEIC/teoic_lib/repo/com/sun/xml/bind/jaxb-impl/2.1.13/jaxb-api.jar,file:/D:/DA_WEB_TOEIC/teoic_lib/repo/com/sun/xml/bind/jaxb-impl/2.1.13/activation.jar,file:/D:/DA_WEB_TOEIC/teoic_lib/repo/com/sun/xml/bind/jaxb-impl/2.1.13/jsr173_1.0_api.jar,file:/D:/DA_WEB_TOEIC/teoic_lib/repo/com/sun/xml/bind/jaxb-impl/2.1.13/jaxb1-impl.jar
2020-09-30 15:17:13,733 INFO org.springframework.boot.logging.DeferredLog [restartedMain] Devtools property defaults active! Set 'spring.devtools.add-properties' to 'false' to disable
2020-09-30 15:17:13,734 INFO org.springframework.boot.logging.DeferredLog [restartedMain] For additional web related logging consider setting the 'logging.level.web' property to 'DEBUG'
2020-09-30 15:17:14,799 INFO org.springframework.data.repository.config.RepositoryConfigurationDelegate [restartedMain] Bootstrapping Spring Data JPA repositories in DEFAULT mode.
2020-09-30 15:17:14,831 INFO org.springframework.data.repository.config.RepositoryConfigurationDelegate [restartedMain] Finished Spring Data repository scanning in 23ms. Found 0 JPA repository interfaces.
2020-09-30 15:17:15,098 INFO org.springframework.context.support.PostProcessorRegistrationDelegate$BeanPostProcessorChecker [restartedMain] Bean 'org.springframework.ws.config.annotation.DelegatingWsConfiguration' of type [org.springframework.ws.config.annotation.DelegatingWsConfiguration$$EnhancerBySpringCGLIB$$cda155dc] is not eligible for getting processed by all BeanPostProcessors (for example: not eligible for auto-proxying)
2020-09-30 15:17:15,139 INFO org.springframework.ws.soap.addressing.server.AbstractAddressingEndpointMapping [restartedMain] Supporting [WS-Addressing August 2004, WS-Addressing 1.0]
2020-09-30 15:17:15,175 INFO org.springframework.context.support.PostProcessorRegistrationDelegate$BeanPostProcessorChecker [restartedMain] Bean 'org.springframework.security.config.annotation.configuration.ObjectPostProcessorConfiguration' of type [org.springframework.security.config.annotation.configuration.ObjectPostProcessorConfiguration] is not eligible for getting processed by all BeanPostProcessors (for example: not eligible for auto-proxying)
2020-09-30 15:17:15,178 INFO org.springframework.context.support.PostProcessorRegistrationDelegate$BeanPostProcessorChecker [restartedMain] Bean 'objectPostProcessor' of type [org.springframework.security.config.annotation.configuration.AutowireBeanFactoryObjectPostProcessor] is not eligible for getting processed by all BeanPostProcessors (for example: not eligible for auto-proxying)
2020-09-30 15:17:15,181 INFO org.springframework.context.support.PostProcessorRegistrationDelegate$BeanPostProcessorChecker [restartedMain] Bean 'org.springframework.security.access.expression.method.DefaultMethodSecurityExpressionHandler@4d3ea2ee' of type [org.springframework.security.access.expression.method.DefaultMethodSecurityExpressionHandler] is not eligible for getting processed by all BeanPostProcessors (for example: not eligible for auto-proxying)
2020-09-30 15:17:15,183 INFO org.springframework.context.support.PostProcessorRegistrationDelegate$BeanPostProcessorChecker [restartedMain] Bean 'org.springframework.security.config.annotation.method.configuration.GlobalMethodSecurityConfiguration' of type [org.springframework.security.config.annotation.method.configuration.GlobalMethodSecurityConfiguration] is not eligible for getting processed by all BeanPostProcessors (for example: not eligible for auto-proxying)
2020-09-30 15:17:15,186 INFO org.springframework.context.support.PostProcessorRegistrationDelegate$BeanPostProcessorChecker [restartedMain] Bean 'methodSecurityMetadataSource' of type [org.springframework.security.access.method.DelegatingMethodSecurityMetadataSource] is not eligible for getting processed by all BeanPostProcessors (for example: not eligible for auto-proxying)
2020-09-30 15:17:15,503 INFO org.springframework.boot.web.embedded.tomcat.TomcatWebServer [restartedMain] Tomcat initialized with port(s): 8088 (http)
2020-09-30 15:17:15,514 INFO org.apache.juli.logging.DirectJDKLog [restartedMain] Starting service [Tomcat]
2020-09-30 15:17:15,514 INFO org.apache.juli.logging.DirectJDKLog [restartedMain] Starting Servlet engine: [Apache Tomcat/9.0.33]
2020-09-30 15:17:15,654 INFO org.apache.juli.logging.DirectJDKLog [restartedMain] Initializing Spring embedded WebApplicationContext
2020-09-30 15:17:15,655 INFO org.springframework.boot.web.servlet.context.ServletWebServerApplicationContext [restartedMain] Root WebApplicationContext: initialization completed in 1921 ms
2020-09-30 15:17:16,395 INFO org.hibernate.Version [restartedMain] HHH000412: Hibernate ORM core version 5.4.12.Final
2020-09-30 15:17:16,557 INFO org.hibernate.annotations.common.reflection.java.JavaReflectionManager [restartedMain] HCANN000001: Hibernate Commons Annotations {5.1.0.Final}
2020-09-30 15:17:16,665 WARN com.zaxxer.hikari.HikariConfig [restartedMain] HikariPool-1 - idleTimeout has been set but has no effect because the pool is operating as a fixed size pool.
2020-09-30 15:17:16,666 INFO com.zaxxer.hikari.HikariDataSource [restartedMain] HikariPool-1 - Starting...
2020-09-30 15:17:16,667 WARN com.zaxxer.hikari.util.DriverDataSource [restartedMain] Registered driver with driverClassName=oracle.jdbc.driver.OracleDriver was not found, trying direct instantiation.
2020-09-30 15:17:17,853 INFO com.zaxxer.hikari.HikariDataSource [restartedMain] HikariPool-1 - Start completed.
2020-09-30 15:17:17,897 INFO org.hibernate.dialect.Dialect [restartedMain] HHH000400: Using dialect: org.hibernate.dialect.Oracle10gDialect
2020-09-30 15:17:20,694 INFO org.hibernate.engine.transaction.jta.platform.internal.JtaPlatformInitiator [restartedMain] HHH000490: Using JtaPlatform implementation: [org.hibernate.engine.transaction.jta.platform.internal.NoJtaPlatform]
2020-09-30 15:17:21,455 INFO springfox.documentation.spring.web.PropertySourcedRequestMappingHandlerMapping [restartedMain] Mapped URL path [/v2/api-docs] onto method [springfox.documentation.swagger2.web.Swagger2Controller#getDocumentation(String, HttpServletRequest)]
2020-09-30 15:17:21,582 INFO org.springframework.security.web.DefaultSecurityFilterChain [restartedMain] Creating filter chain: any request, [org.springframework.security.web.context.request.async.WebAsyncManagerIntegrationFilter@7ff0106b, org.springframework.security.web.context.SecurityContextPersistenceFilter@d0c2506, org.springframework.security.web.header.HeaderWriterFilter@7def8a91, org.springframework.web.filter.CorsFilter@49375d6a, org.springframework.security.web.authentication.logout.LogoutFilter@350c6110, com.migi.toeic.authen.JwtRequestFilter@2ca6ee52, org.springframework.security.web.savedrequest.RequestCacheAwareFilter@25d04f07, org.springframework.security.web.servletapi.SecurityContextHolderAwareRequestFilter@25111cf6, org.springframework.security.web.authentication.AnonymousAuthenticationFilter@38f17386, org.springframework.security.web.session.SessionManagementFilter@4a25c01f, org.springframework.security.web.access.ExceptionTranslationFilter@79c100d, org.springframework.security.web.access.intercept.FilterSecurityInterceptor@4cb1b397]
2020-09-30 15:17:21,644 INFO org.springframework.scheduling.concurrent.ExecutorConfigurationSupport [restartedMain] Initializing ExecutorService 'applicationTaskExecutor'
2020-09-30 15:17:21,689 INFO org.springframework.boot.devtools.autoconfigure.OptionalLiveReloadServer [restartedMain] LiveReload server is running on port 35729
2020-09-30 15:17:21,870 INFO springfox.documentation.spring.web.plugins.DocumentationPluginsBootstrapper [restartedMain] Context refreshed
2020-09-30 15:17:21,882 INFO springfox.documentation.spring.web.plugins.DocumentationPluginsBootstrapper [restartedMain] Found 1 custom documentation plugin(s)
2020-09-30 15:17:22,130 INFO springfox.documentation.spring.web.scanners.ApiListingReferenceScanner [restartedMain] Scanning for api listing references
2020-09-30 15:17:22,269 INFO springfox.documentation.spring.web.readers.operation.CachingOperationNameGenerator [restartedMain] Generating unique operation named: createUsingPOST_1
2020-09-30 15:17:22,304 INFO springfox.documentation.spring.web.readers.operation.CachingOperationNameGenerator [restartedMain] Generating unique operation named: deleteUsingPOST_1
2020-09-30 15:17:22,308 INFO springfox.documentation.spring.web.readers.operation.CachingOperationNameGenerator [restartedMain] Generating unique operation named: doSearchUsingPOST_1
2020-09-30 15:17:22,316 INFO springfox.documentation.spring.web.readers.operation.CachingOperationNameGenerator [restartedMain] Generating unique operation named: getDetailUsingPOST_1
2020-09-30 15:17:22,327 INFO springfox.documentation.spring.web.readers.operation.CachingOperationNameGenerator [restartedMain] Generating unique operation named: updateUsingPOST_1
2020-09-30 15:17:22,351 INFO springfox.documentation.spring.web.readers.operation.CachingOperationNameGenerator [restartedMain] Generating unique operation named: doSearchUsingPOST_2
2020-09-30 15:17:22,366 INFO springfox.documentation.spring.web.readers.operation.CachingOperationNameGenerator [restartedMain] Generating unique operation named: doSearchUsingPOST_3
2020-09-30 15:17:22,376 INFO springfox.documentation.spring.web.readers.operation.CachingOperationNameGenerator [restartedMain] Generating unique operation named: getDetailUsingPOST_2
2020-09-30 15:17:22,400 INFO springfox.documentation.spring.web.readers.operation.CachingOperationNameGenerator [restartedMain] Generating unique operation named: createUsingPOST_2
2020-09-30 15:17:22,404 INFO springfox.documentation.spring.web.readers.operation.CachingOperationNameGenerator [restartedMain] Generating unique operation named: deleteUsingPOST_2
2020-09-30 15:17:22,409 INFO springfox.documentation.spring.web.readers.operation.CachingOperationNameGenerator [restartedMain] Generating unique operation named: getDetailUsingPOST_3
2020-09-30 15:17:22,414 INFO springfox.documentation.spring.web.readers.operation.CachingOperationNameGenerator [restartedMain] Generating unique operation named: updateUsingPOST_2
2020-09-30 15:17:22,418 INFO springfox.documentation.spring.web.readers.operation.CachingOperationNameGenerator [restartedMain] Generating unique operation named: createUsingPOST_3
2020-09-30 15:17:22,423 INFO springfox.documentation.spring.web.readers.operation.CachingOperationNameGenerator [restartedMain] Generating unique operation named: deleteUsingPOST_3
2020-09-30 15:17:22,431 INFO springfox.documentation.spring.web.readers.operation.CachingOperationNameGenerator [restartedMain] Generating unique operation named: getDetailUsingPOST_4
2020-09-30 15:17:22,437 INFO springfox.documentation.spring.web.readers.operation.CachingOperationNameGenerator [restartedMain] Generating unique operation named: updateUsingPOST_3
2020-09-30 15:17:22,441 INFO springfox.documentation.spring.web.readers.operation.CachingOperationNameGenerator [restartedMain] Generating unique operation named: createUsingPOST_4
2020-09-30 15:17:22,445 INFO springfox.documentation.spring.web.readers.operation.CachingOperationNameGenerator [restartedMain] Generating unique operation named: deleteUsingPOST_4
2020-09-30 15:17:22,452 INFO springfox.documentation.spring.web.readers.operation.CachingOperationNameGenerator [restartedMain] Generating unique operation named: getDetailUsingPOST_5
2020-09-30 15:17:22,455 INFO springfox.documentation.spring.web.readers.operation.CachingOperationNameGenerator [restartedMain] Generating unique operation named: updateUsingPOST_4
2020-09-30 15:17:22,460 INFO springfox.documentation.spring.web.readers.operation.CachingOperationNameGenerator [restartedMain] Generating unique operation named: createUsingPOST_5
2020-09-30 15:17:22,463 INFO springfox.documentation.spring.web.readers.operation.CachingOperationNameGenerator [restartedMain] Generating unique operation named: deleteUsingPOST_5
2020-09-30 15:17:22,469 INFO springfox.documentation.spring.web.readers.operation.CachingOperationNameGenerator [restartedMain] Generating unique operation named: getDetailUsingPOST_6
2020-09-30 15:17:22,471 INFO springfox.documentation.spring.web.readers.operation.CachingOperationNameGenerator [restartedMain] Generating unique operation named: updateUsingPOST_5
2020-09-30 15:17:22,495 INFO springfox.documentation.spring.web.readers.operation.CachingOperationNameGenerator [restartedMain] Generating unique operation named: doSearchUsingPOST_4
2020-09-30 15:17:22,510 INFO springfox.documentation.spring.web.readers.operation.CachingOperationNameGenerator [restartedMain] Generating unique operation named: getDetailUsingPOST_7
2020-09-30 15:17:22,559 INFO springfox.documentation.spring.web.readers.operation.CachingOperationNameGenerator [restartedMain] Generating unique operation named: createUsingPOST_6
2020-09-30 15:17:22,563 INFO springfox.documentation.spring.web.readers.operation.CachingOperationNameGenerator [restartedMain] Generating unique operation named: deleteUsingPOST_6
2020-09-30 15:17:22,566 INFO springfox.documentation.spring.web.readers.operation.CachingOperationNameGenerator [restartedMain] Generating unique operation named: doSearchUsingPOST_5
2020-09-30 15:17:22,569 INFO springfox.documentation.spring.web.readers.operation.CachingOperationNameGenerator [restartedMain] Generating unique operation named: getDetailUsingPOST_8
2020-09-30 15:17:22,588 INFO springfox.documentation.spring.web.readers.operation.CachingOperationNameGenerator [restartedMain] Generating unique operation named: updateUsingPOST_6
2020-09-30 15:17:22,598 INFO springfox.documentation.spring.web.readers.operation.CachingOperationNameGenerator [restartedMain] Generating unique operation named: doSearchUsingPOST_6
2020-09-30 15:17:22,601 INFO springfox.documentation.spring.web.readers.operation.CachingOperationNameGenerator [restartedMain] Generating unique operation named: getDetailUsingPOST_9
2020-09-30 15:17:22,661 INFO org.springframework.boot.web.embedded.tomcat.TomcatWebServer [restartedMain] Tomcat started on port(s): 8088 (http) with context path ''
2020-09-30 15:17:22,665 INFO org.springframework.boot.StartupInfoLogger [restartedMain] Started ToeicApplication in 9.335 seconds (JVM running for 10.393)
2020-09-30 15:18:21,497 INFO org.apache.juli.logging.DirectJDKLog [http-nio-8088-exec-1] Initializing Spring DispatcherServlet 'dispatcherServlet'
2020-09-30 15:18:21,516 INFO org.springframework.web.servlet.FrameworkServlet [http-nio-8088-exec-1] Initializing Servlet 'dispatcherServlet'
2020-09-30 15:18:21,792 INFO org.springframework.web.servlet.FrameworkServlet [http-nio-8088-exec-1] Completed initialization in 273 ms
2020-09-30 15:21:19,388 WARN org.hibernate.internal.SessionImpl [http-nio-8088-exec-9] HHH90000022: Hibernate's legacy org.hibernate.Criteria API is deprecated; use the JPA javax.persistence.criteria.CriteriaQuery instead
2020-09-30 15:21:19,719 WARN org.hibernate.internal.SessionImpl [http-nio-8088-exec-9] HHH90000022: Hibernate's legacy org.hibernate.Criteria API is deprecated; use the JPA javax.persistence.criteria.CriteriaQuery instead
