2020-12-13 21:45:15,044 INFO org.springframework.boot.StartupInfoLogger [restartedMain] Starting ToeicApplication on DESKTOP-GDE00QD with PID 13240 (D:\DA_WEB_TOEIC\toeic_service\target\classes started by Tung in D:\DA_WEB_TOEIC\toeic_service)
2020-12-13 21:45:15,110 INFO org.springframework.boot.SpringApplication [restartedMain] The following profiles are active: dev
2020-12-13 21:45:15,532 INFO org.springframework.boot.logging.DeferredLog [restartedMain] The Class-Path manifest attribute in D:\DA_WEB_TOEIC\teoic_lib\repo\org\glassfish\jaxb\jaxb-runtime\2.3.2\jaxb-runtime-2.3.2.jar referenced one or more files that do not exist: file:/D:/DA_WEB_TOEIC/teoic_lib/repo/org/glassfish/jaxb/jaxb-runtime/2.3.2/jakarta.xml.bind-api-2.3.2.jar,file:/D:/DA_WEB_TOEIC/teoic_lib/repo/org/glassfish/jaxb/jaxb-runtime/2.3.2/txw2-2.3.2.jar,file:/D:/DA_WEB_TOEIC/teoic_lib/repo/org/glassfish/jaxb/jaxb-runtime/2.3.2/istack-commons-runtime-3.0.8.jar,file:/D:/DA_WEB_TOEIC/teoic_lib/repo/org/glassfish/jaxb/jaxb-runtime/2.3.2/stax-ex-1.8.1.jar,file:/D:/DA_WEB_TOEIC/teoic_lib/repo/org/glassfish/jaxb/jaxb-runtime/2.3.2/FastInfoset-1.2.16.jar,file:/D:/DA_WEB_TOEIC/teoic_lib/repo/org/glassfish/jaxb/jaxb-runtime/2.3.2/jakarta.activation-api-1.2.1.jar
2020-12-13 21:45:15,540 INFO org.springframework.boot.logging.DeferredLog [restartedMain] The Class-Path manifest attribute in D:\DA_WEB_TOEIC\teoic_lib\repo\com\oracle\ojdbc\ojdbc8\19.3.0.0\ojdbc8-19.3.0.0.jar referenced one or more files that do not exist: file:/D:/DA_WEB_TOEIC/teoic_lib/repo/com/oracle/ojdbc/ojdbc8/19.3.0.0/oraclepki.jar
2020-12-13 21:45:15,543 INFO org.springframework.boot.logging.DeferredLog [restartedMain] The Class-Path manifest attribute in D:\DA_WEB_TOEIC\teoic_lib\repo\com\oracle\ojdbc\oraclepki\19.3.0.0\oraclepki-19.3.0.0.jar referenced one or more files that do not exist: file:/D:/DA_WEB_TOEIC/teoic_lib/repo/com/oracle/ojdbc/oraclepki/19.3.0.0/osdt_core.jar,file:/D:/DA_WEB_TOEIC/teoic_lib/repo/com/oracle/ojdbc/oraclepki/19.3.0.0/osdt_cert.jar,file:/D:/DA_WEB_TOEIC/teoic_lib/repo/com/oracle/ojdbc/oraclepki/oracle.osdt/osdt_core.jar,file:/D:/DA_WEB_TOEIC/teoic_lib/repo/com/oracle/ojdbc/oraclepki/oracle.osdt/osdt_cert.jar
2020-12-13 21:45:15,544 INFO org.springframework.boot.logging.DeferredLog [restartedMain] The Class-Path manifest attribute in D:\DA_WEB_TOEIC\teoic_lib\repo\com\google\oauth-client\google-oauth-client-java6\1.11.0-beta\google-oauth-client-java6-1.11.0-beta.jar referenced one or more files that do not exist: file:/D:/DA_WEB_TOEIC/teoic_lib/repo/com/google/oauth-client/google-oauth-client-java6/1.11.0-beta/google-oauth-client-1.11.0-beta.jar,file:/D:/DA_WEB_TOEIC/teoic_lib/repo/com/google/oauth-client/google-oauth-client-java6/1.11.0-beta/google-http-client-1.11.0-beta.jar,file:/D:/DA_WEB_TOEIC/teoic_lib/repo/com/google/oauth-client/google-oauth-client-java6/1.11.0-beta/httpclient-4.0.3.jar,file:/D:/DA_WEB_TOEIC/teoic_lib/repo/com/google/oauth-client/google-oauth-client-java6/1.11.0-beta/httpcore-4.0.1.jar,file:/D:/DA_WEB_TOEIC/teoic_lib/repo/com/google/oauth-client/google-oauth-client-java6/1.11.0-beta/commons-logging-1.1.1.jar,file:/D:/DA_WEB_TOEIC/teoic_lib/repo/com/google/oauth-client/google-oauth-client-java6/1.11.0-beta/xpp3-1.1.4c.jar,file:/D:/DA_WEB_TOEIC/teoic_lib/repo/com/google/oauth-client/google-oauth-client-java6/1.11.0-beta/jsr305-1.3.9.jar,file:/D:/DA_WEB_TOEIC/teoic_lib/repo/com/google/oauth-client/google-oauth-client-java6/1.11.0-beta/guava-11.0.1.jar
2020-12-13 21:45:15,544 INFO org.springframework.boot.logging.DeferredLog [restartedMain] The Class-Path manifest attribute in D:\DA_WEB_TOEIC\teoic_lib\repo\com\sun\xml\bind\jaxb-impl\2.1.13\jaxb-impl-2.1.13.jar referenced one or more files that do not exist: file:/D:/DA_WEB_TOEIC/teoic_lib/repo/com/sun/xml/bind/jaxb-impl/2.1.13/jaxb-api.jar,file:/D:/DA_WEB_TOEIC/teoic_lib/repo/com/sun/xml/bind/jaxb-impl/2.1.13/activation.jar,file:/D:/DA_WEB_TOEIC/teoic_lib/repo/com/sun/xml/bind/jaxb-impl/2.1.13/jsr173_1.0_api.jar,file:/D:/DA_WEB_TOEIC/teoic_lib/repo/com/sun/xml/bind/jaxb-impl/2.1.13/jaxb1-impl.jar
2020-12-13 21:45:15,545 INFO org.springframework.boot.logging.DeferredLog [restartedMain] Devtools property defaults active! Set 'spring.devtools.add-properties' to 'false' to disable
2020-12-13 21:45:15,546 INFO org.springframework.boot.logging.DeferredLog [restartedMain] For additional web related logging consider setting the 'logging.level.web' property to 'DEBUG'
2020-12-13 21:45:18,492 INFO org.springframework.data.repository.config.RepositoryConfigurationDelegate [restartedMain] Bootstrapping Spring Data JPA repositories in DEFAULT mode.
2020-12-13 21:45:18,561 INFO org.springframework.data.repository.config.RepositoryConfigurationDelegate [restartedMain] Finished Spring Data repository scanning in 52ms. Found 0 JPA repository interfaces.
2020-12-13 21:45:19,718 INFO org.springframework.context.support.PostProcessorRegistrationDelegate$BeanPostProcessorChecker [restartedMain] Bean 'org.springframework.ws.config.annotation.DelegatingWsConfiguration' of type [org.springframework.ws.config.annotation.DelegatingWsConfiguration$$EnhancerBySpringCGLIB$$ff6b0a11] is not eligible for getting processed by all BeanPostProcessors (for example: not eligible for auto-proxying)
2020-12-13 21:45:19,845 INFO org.springframework.ws.soap.addressing.server.AbstractAddressingEndpointMapping [restartedMain] Supporting [WS-Addressing August 2004, WS-Addressing 1.0]
2020-12-13 21:45:19,965 INFO org.springframework.context.support.PostProcessorRegistrationDelegate$BeanPostProcessorChecker [restartedMain] Bean 'org.springframework.security.config.annotation.configuration.ObjectPostProcessorConfiguration' of type [org.springframework.security.config.annotation.configuration.ObjectPostProcessorConfiguration] is not eligible for getting processed by all BeanPostProcessors (for example: not eligible for auto-proxying)
2020-12-13 21:45:19,975 INFO org.springframework.context.support.PostProcessorRegistrationDelegate$BeanPostProcessorChecker [restartedMain] Bean 'objectPostProcessor' of type [org.springframework.security.config.annotation.configuration.AutowireBeanFactoryObjectPostProcessor] is not eligible for getting processed by all BeanPostProcessors (for example: not eligible for auto-proxying)
2020-12-13 21:45:19,979 INFO org.springframework.context.support.PostProcessorRegistrationDelegate$BeanPostProcessorChecker [restartedMain] Bean 'org.springframework.security.access.expression.method.DefaultMethodSecurityExpressionHandler@69df9899' of type [org.springframework.security.access.expression.method.DefaultMethodSecurityExpressionHandler] is not eligible for getting processed by all BeanPostProcessors (for example: not eligible for auto-proxying)
2020-12-13 21:45:19,986 INFO org.springframework.context.support.PostProcessorRegistrationDelegate$BeanPostProcessorChecker [restartedMain] Bean 'org.springframework.security.config.annotation.method.configuration.GlobalMethodSecurityConfiguration' of type [org.springframework.security.config.annotation.method.configuration.GlobalMethodSecurityConfiguration] is not eligible for getting processed by all BeanPostProcessors (for example: not eligible for auto-proxying)
2020-12-13 21:45:19,999 INFO org.springframework.context.support.PostProcessorRegistrationDelegate$BeanPostProcessorChecker [restartedMain] Bean 'methodSecurityMetadataSource' of type [org.springframework.security.access.method.DelegatingMethodSecurityMetadataSource] is not eligible for getting processed by all BeanPostProcessors (for example: not eligible for auto-proxying)
2020-12-13 21:45:21,709 INFO org.springframework.boot.web.embedded.tomcat.TomcatWebServer [restartedMain] Tomcat initialized with port(s): 8088 (http)
2020-12-13 21:45:21,738 INFO org.apache.juli.logging.DirectJDKLog [restartedMain] Starting service [Tomcat]
2020-12-13 21:45:21,738 INFO org.apache.juli.logging.DirectJDKLog [restartedMain] Starting Servlet engine: [Apache Tomcat/9.0.33]
2020-12-13 21:45:22,058 INFO org.apache.juli.logging.DirectJDKLog [restartedMain] Initializing Spring embedded WebApplicationContext
2020-12-13 21:45:22,062 INFO org.springframework.boot.web.servlet.context.ServletWebServerApplicationContext [restartedMain] Root WebApplicationContext: initialization completed in 6515 ms
2020-12-13 21:45:22,823 INFO org.hibernate.Version [restartedMain] HHH000412: Hibernate ORM core version 5.4.12.Final
2020-12-13 21:45:23,351 INFO org.hibernate.annotations.common.reflection.java.JavaReflectionManager [restartedMain] HCANN000001: Hibernate Commons Annotations {5.1.0.Final}
2020-12-13 21:45:23,737 WARN com.zaxxer.hikari.HikariConfig [restartedMain] HikariPool-1 - idleTimeout has been set but has no effect because the pool is operating as a fixed size pool.
2020-12-13 21:45:23,739 INFO com.zaxxer.hikari.HikariDataSource [restartedMain] HikariPool-1 - Starting...
2020-12-13 21:45:23,752 WARN com.zaxxer.hikari.util.DriverDataSource [restartedMain] Registered driver with driverClassName=oracle.jdbc.driver.OracleDriver was not found, trying direct instantiation.
2020-12-13 21:45:25,685 INFO com.zaxxer.hikari.HikariDataSource [restartedMain] HikariPool-1 - Start completed.
2020-12-13 21:45:25,779 INFO org.hibernate.dialect.Dialect [restartedMain] HHH000400: Using dialect: org.hibernate.dialect.Oracle12cDialect
2020-12-13 21:45:30,240 INFO org.hibernate.engine.transaction.jta.platform.internal.JtaPlatformInitiator [restartedMain] HHH000490: Using JtaPlatform implementation: [org.hibernate.engine.transaction.jta.platform.internal.NoJtaPlatform]
2020-12-13 21:45:30,949 INFO org.springframework.beans.factory.annotation.AutowiredAnnotationBeanPostProcessor [restartedMain] Autowired annotation is not supported on static fields: protected static final org.apache.log4j.Logger com.migi.toeic.base.common.amazons3.UpFileAmazon.logger
2020-12-13 21:45:31,351 INFO org.springframework.beans.factory.annotation.AutowiredAnnotationBeanPostProcessor [restartedMain] Autowired annotation is not supported on static fields: protected static final org.apache.log4j.Logger com.migi.toeic.service.impl.ProfileServiceImpl.logger
2020-12-13 21:45:32,225 INFO springfox.documentation.spring.web.PropertySourcedRequestMappingHandlerMapping [restartedMain] Mapped URL path [/v2/api-docs] onto method [springfox.documentation.swagger2.web.Swagger2Controller#getDocumentation(String, HttpServletRequest)]
2020-12-13 21:45:32,627 INFO org.springframework.security.web.DefaultSecurityFilterChain [restartedMain] Creating filter chain: any request, [org.springframework.security.web.context.request.async.WebAsyncManagerIntegrationFilter@8437369, org.springframework.security.web.context.SecurityContextPersistenceFilter@2b6664ce, org.springframework.security.web.header.HeaderWriterFilter@994fd9b, org.springframework.web.filter.CorsFilter@5ecefcba, org.springframework.security.web.authentication.logout.LogoutFilter@64e4bb5b, com.migi.toeic.authen.JwtRequestFilter@1757d3a0, org.springframework.security.web.savedrequest.RequestCacheAwareFilter@680f0a2, org.springframework.security.web.servletapi.SecurityContextHolderAwareRequestFilter@4830b3e0, org.springframework.security.web.authentication.AnonymousAuthenticationFilter@20e3559b, org.springframework.security.web.session.SessionManagementFilter@6add863f, org.springframework.security.web.access.ExceptionTranslationFilter@77ccdcfa, org.springframework.security.web.access.intercept.FilterSecurityInterceptor@413b24aa]
2020-12-13 21:45:32,833 INFO org.springframework.scheduling.concurrent.ExecutorConfigurationSupport [restartedMain] Initializing ExecutorService 'applicationTaskExecutor'
2020-12-13 21:45:32,913 INFO org.springframework.boot.devtools.autoconfigure.OptionalLiveReloadServer [restartedMain] LiveReload server is running on port 35729
2020-12-13 21:45:33,392 INFO springfox.documentation.spring.web.plugins.DocumentationPluginsBootstrapper [restartedMain] Context refreshed
2020-12-13 21:45:33,429 INFO springfox.documentation.spring.web.plugins.DocumentationPluginsBootstrapper [restartedMain] Found 1 custom documentation plugin(s)
2020-12-13 21:45:33,652 INFO springfox.documentation.spring.web.scanners.ApiListingReferenceScanner [restartedMain] Scanning for api listing references
2020-12-13 21:45:34,423 INFO springfox.documentation.spring.web.readers.operation.CachingOperationNameGenerator [restartedMain] Generating unique operation named: createUsingPOST_1
2020-12-13 21:45:34,719 INFO springfox.documentation.spring.web.readers.operation.CachingOperationNameGenerator [restartedMain] Generating unique operation named: deleteUsingPOST_1
2020-12-13 21:45:34,726 INFO springfox.documentation.spring.web.readers.operation.CachingOperationNameGenerator [restartedMain] Generating unique operation named: doSearchUsingPOST_1
2020-12-13 21:45:34,752 INFO springfox.documentation.spring.web.readers.operation.CachingOperationNameGenerator [restartedMain] Generating unique operation named: getDetailUsingPOST_1
2020-12-13 21:45:34,853 INFO springfox.documentation.spring.web.readers.operation.CachingOperationNameGenerator [restartedMain] Generating unique operation named: updateUsingPOST_1
2020-12-13 21:45:34,941 INFO springfox.documentation.spring.web.readers.operation.CachingOperationNameGenerator [restartedMain] Generating unique operation named: doSearchUsingPOST_2
2020-12-13 21:45:35,057 INFO springfox.documentation.spring.web.readers.operation.CachingOperationNameGenerator [restartedMain] Generating unique operation named: doSearchUsingPOST_3
2020-12-13 21:45:35,131 INFO springfox.documentation.spring.web.readers.operation.CachingOperationNameGenerator [restartedMain] Generating unique operation named: getDetailUsingPOST_2
2020-12-13 21:45:35,213 INFO springfox.documentation.spring.web.readers.operation.CachingOperationNameGenerator [restartedMain] Generating unique operation named: createUsingPOST_2
2020-12-13 21:45:35,227 INFO springfox.documentation.spring.web.readers.operation.CachingOperationNameGenerator [restartedMain] Generating unique operation named: deleteUsingPOST_2
2020-12-13 21:45:35,244 INFO springfox.documentation.spring.web.readers.operation.CachingOperationNameGenerator [restartedMain] Generating unique operation named: getDetailUsingPOST_3
2020-12-13 21:45:35,300 INFO springfox.documentation.spring.web.readers.operation.CachingOperationNameGenerator [restartedMain] Generating unique operation named: updateUsingPOST_2
2020-12-13 21:45:35,320 INFO springfox.documentation.spring.web.readers.operation.CachingOperationNameGenerator [restartedMain] Generating unique operation named: createUsingPOST_3
2020-12-13 21:45:35,328 INFO springfox.documentation.spring.web.readers.operation.CachingOperationNameGenerator [restartedMain] Generating unique operation named: deleteUsingPOST_3
2020-12-13 21:45:35,340 INFO springfox.documentation.spring.web.readers.operation.CachingOperationNameGenerator [restartedMain] Generating unique operation named: getDetailUsingPOST_4
2020-12-13 21:45:35,361 INFO springfox.documentation.spring.web.readers.operation.CachingOperationNameGenerator [restartedMain] Generating unique operation named: getResultQuestionOfReadWordFillUsingPOST_1
2020-12-13 21:45:35,375 INFO springfox.documentation.spring.web.readers.operation.CachingOperationNameGenerator [restartedMain] Generating unique operation named: updateUsingPOST_3
2020-12-13 21:45:35,389 INFO springfox.documentation.spring.web.readers.operation.CachingOperationNameGenerator [restartedMain] Generating unique operation named: createUsingPOST_4
2020-12-13 21:45:35,392 INFO springfox.documentation.spring.web.readers.operation.CachingOperationNameGenerator [restartedMain] Generating unique operation named: deleteUsingPOST_4
2020-12-13 21:45:35,403 INFO springfox.documentation.spring.web.readers.operation.CachingOperationNameGenerator [restartedMain] Generating unique operation named: getDetailUsingPOST_5
2020-12-13 21:45:35,414 INFO springfox.documentation.spring.web.readers.operation.CachingOperationNameGenerator [restartedMain] Generating unique operation named: updateUsingPOST_4
2020-12-13 21:45:35,428 INFO springfox.documentation.spring.web.readers.operation.CachingOperationNameGenerator [restartedMain] Generating unique operation named: createUsingPOST_5
2020-12-13 21:45:35,441 INFO springfox.documentation.spring.web.readers.operation.CachingOperationNameGenerator [restartedMain] Generating unique operation named: deleteUsingPOST_5
2020-12-13 21:45:35,457 INFO springfox.documentation.spring.web.readers.operation.CachingOperationNameGenerator [restartedMain] Generating unique operation named: getDetailUsingPOST_6
2020-12-13 21:45:35,469 INFO springfox.documentation.spring.web.readers.operation.CachingOperationNameGenerator [restartedMain] Generating unique operation named: getListQaTransAVByLevelUsingPOST_1
2020-12-13 21:45:35,475 INFO springfox.documentation.spring.web.readers.operation.CachingOperationNameGenerator [restartedMain] Generating unique operation named: getListQaTransAVByTopicUsingPOST_1
2020-12-13 21:45:35,489 INFO springfox.documentation.spring.web.readers.operation.CachingOperationNameGenerator [restartedMain] Generating unique operation named: updateUsingPOST_5
2020-12-13 21:45:35,569 INFO springfox.documentation.spring.web.readers.operation.CachingOperationNameGenerator [restartedMain] Generating unique operation named: doSearchUsingPOST_4
2020-12-13 21:45:35,586 INFO springfox.documentation.spring.web.readers.operation.CachingOperationNameGenerator [restartedMain] Generating unique operation named: getDetailUsingPOST_7
2020-12-13 21:45:35,730 INFO springfox.documentation.spring.web.readers.operation.CachingOperationNameGenerator [restartedMain] Generating unique operation named: createUsingPOST_6
2020-12-13 21:45:35,750 INFO springfox.documentation.spring.web.readers.operation.CachingOperationNameGenerator [restartedMain] Generating unique operation named: deleteUsingPOST_6
2020-12-13 21:45:35,768 INFO springfox.documentation.spring.web.readers.operation.CachingOperationNameGenerator [restartedMain] Generating unique operation named: doSearchUsingPOST_5
2020-12-13 21:45:35,775 INFO springfox.documentation.spring.web.readers.operation.CachingOperationNameGenerator [restartedMain] Generating unique operation named: getDetailUsingPOST_8
2020-12-13 21:45:35,808 INFO springfox.documentation.spring.web.readers.operation.CachingOperationNameGenerator [restartedMain] Generating unique operation named: updateUsingPOST_6
2020-12-13 21:45:35,834 INFO springfox.documentation.spring.web.readers.operation.CachingOperationNameGenerator [restartedMain] Generating unique operation named: doSearchUsingPOST_6
2020-12-13 21:45:35,840 INFO springfox.documentation.spring.web.readers.operation.CachingOperationNameGenerator [restartedMain] Generating unique operation named: getDetailUsingPOST_9
2020-12-13 21:45:36,018 INFO org.springframework.boot.web.embedded.tomcat.TomcatWebServer [restartedMain] Tomcat started on port(s): 8088 (http) with context path ''
2020-12-13 21:45:36,028 INFO org.springframework.boot.StartupInfoLogger [restartedMain] Started ToeicApplication in 22.427 seconds (JVM running for 27.318)
2020-12-13 21:48:39,273 INFO org.apache.juli.logging.DirectJDKLog [http-nio-8088-exec-1] Initializing Spring DispatcherServlet 'dispatcherServlet'
2020-12-13 21:48:39,316 INFO org.springframework.web.servlet.FrameworkServlet [http-nio-8088-exec-1] Initializing Servlet 'dispatcherServlet'
2020-12-13 21:48:39,798 INFO org.springframework.web.servlet.FrameworkServlet [http-nio-8088-exec-1] Completed initialization in 480 ms
2020-12-13 21:49:42,356 WARN org.hibernate.internal.SessionImpl [http-nio-8088-exec-7] HHH90000022: Hibernate's legacy org.hibernate.Criteria API is deprecated; use the JPA javax.persistence.criteria.CriteriaQuery instead
2020-12-13 21:49:42,729 WARN org.hibernate.internal.SessionImpl [http-nio-8088-exec-7] HHH90000022: Hibernate's legacy org.hibernate.Criteria API is deprecated; use the JPA javax.persistence.criteria.CriteriaQuery instead
2020-12-13 21:49:45,188 WARN org.hibernate.internal.SessionImpl [http-nio-8088-exec-4] HHH90000022: Hibernate's legacy org.hibernate.Criteria API is deprecated; use the JPA javax.persistence.criteria.CriteriaQuery instead
2020-12-13 21:49:45,188 WARN org.hibernate.internal.SessionImpl [http-nio-8088-exec-6] HHH90000022: Hibernate's legacy org.hibernate.Criteria API is deprecated; use the JPA javax.persistence.criteria.CriteriaQuery instead
2020-12-13 21:49:45,193 WARN org.hibernate.internal.SessionImpl [http-nio-8088-exec-3] HHH90000022: Hibernate's legacy org.hibernate.Criteria API is deprecated; use the JPA javax.persistence.criteria.CriteriaQuery instead
2020-12-13 21:49:50,100 WARN org.hibernate.internal.SessionImpl [http-nio-8088-exec-4] HHH90000022: Hibernate's legacy org.hibernate.Criteria API is deprecated; use the JPA javax.persistence.criteria.CriteriaQuery instead
2020-12-13 21:49:50,100 WARN org.hibernate.internal.SessionImpl [http-nio-8088-exec-5] HHH90000022: Hibernate's legacy org.hibernate.Criteria API is deprecated; use the JPA javax.persistence.criteria.CriteriaQuery instead
2020-12-13 21:49:50,104 WARN org.hibernate.internal.SessionImpl [http-nio-8088-exec-6] HHH90000022: Hibernate's legacy org.hibernate.Criteria API is deprecated; use the JPA javax.persistence.criteria.CriteriaQuery instead
2020-12-13 21:49:50,187 WARN org.hibernate.internal.SessionImpl [http-nio-8088-exec-9] HHH90000022: Hibernate's legacy org.hibernate.Criteria API is deprecated; use the JPA javax.persistence.criteria.CriteriaQuery instead
2020-12-13 21:50:22,436 WARN org.hibernate.internal.SessionImpl [http-nio-8088-exec-3] HHH90000022: Hibernate's legacy org.hibernate.Criteria API is deprecated; use the JPA javax.persistence.criteria.CriteriaQuery instead
2020-12-13 21:50:49,226 WARN org.hibernate.internal.SessionImpl [http-nio-8088-exec-7] HHH90000022: Hibernate's legacy org.hibernate.Criteria API is deprecated; use the JPA javax.persistence.criteria.CriteriaQuery instead
2020-12-13 21:50:49,226 WARN org.hibernate.internal.SessionImpl [http-nio-8088-exec-8] HHH90000022: Hibernate's legacy org.hibernate.Criteria API is deprecated; use the JPA javax.persistence.criteria.CriteriaQuery instead
2020-12-13 21:50:49,226 WARN org.hibernate.internal.SessionImpl [http-nio-8088-exec-9] HHH90000022: Hibernate's legacy org.hibernate.Criteria API is deprecated; use the JPA javax.persistence.criteria.CriteriaQuery instead
2020-12-13 21:50:49,995 WARN org.hibernate.internal.SessionImpl [http-nio-8088-exec-2] HHH90000022: Hibernate's legacy org.hibernate.Criteria API is deprecated; use the JPA javax.persistence.criteria.CriteriaQuery instead
2020-12-13 22:06:19,715 WARN org.hibernate.internal.SessionImpl [http-nio-8088-exec-8] HHH90000022: Hibernate's legacy org.hibernate.Criteria API is deprecated; use the JPA javax.persistence.criteria.CriteriaQuery instead
2020-12-13 22:06:19,980 WARN org.hibernate.internal.SessionImpl [http-nio-8088-exec-8] HHH90000022: Hibernate's legacy org.hibernate.Criteria API is deprecated; use the JPA javax.persistence.criteria.CriteriaQuery instead
2020-12-13 22:06:21,970 WARN org.hibernate.internal.SessionImpl [http-nio-8088-exec-6] HHH90000022: Hibernate's legacy org.hibernate.Criteria API is deprecated; use the JPA javax.persistence.criteria.CriteriaQuery instead
2020-12-13 22:06:21,973 WARN org.hibernate.internal.SessionImpl [http-nio-8088-exec-2] HHH90000022: Hibernate's legacy org.hibernate.Criteria API is deprecated; use the JPA javax.persistence.criteria.CriteriaQuery instead
2020-12-13 22:06:21,978 WARN org.hibernate.internal.SessionImpl [http-nio-8088-exec-3] HHH90000022: Hibernate's legacy org.hibernate.Criteria API is deprecated; use the JPA javax.persistence.criteria.CriteriaQuery instead
2020-12-13 22:06:26,515 WARN org.hibernate.internal.SessionImpl [http-nio-8088-exec-8] HHH90000022: Hibernate's legacy org.hibernate.Criteria API is deprecated; use the JPA javax.persistence.criteria.CriteriaQuery instead
2020-12-13 22:06:26,515 WARN org.hibernate.internal.SessionImpl [http-nio-8088-exec-4] HHH90000022: Hibernate's legacy org.hibernate.Criteria API is deprecated; use the JPA javax.persistence.criteria.CriteriaQuery instead
2020-12-13 22:06:26,515 WARN org.hibernate.internal.SessionImpl [http-nio-8088-exec-7] HHH90000022: Hibernate's legacy org.hibernate.Criteria API is deprecated; use the JPA javax.persistence.criteria.CriteriaQuery instead
2020-12-13 22:06:26,611 WARN org.hibernate.internal.SessionImpl [http-nio-8088-exec-6] HHH90000022: Hibernate's legacy org.hibernate.Criteria API is deprecated; use the JPA javax.persistence.criteria.CriteriaQuery instead
