2020-06-12 13:52:38 INFO  Demo:12 - info log
2020-06-12 13:52:38 DEBUG Demo:10 - debug log
2020-06-12 13:52:38 ERROR Demo:11 - error log
2020-06-12 13:52:38 INFO  Demo:12 - info log
2020-06-12 13:52:38 DEBUG Demo:10 - debug log
2020-06-12 13:52:38 ERROR Demo:11 - error log
2020-06-12 13:52:38 INFO  Demo:12 - info log
2020-06-12 13:52:38 DEBUG Demo:10 - debug log
2020-06-12 13:52:38 ERROR Demo:11 - error log
2020-06-12 13:52:38 INFO  Demo:12 - info log
2020-06-12 13:52:38 DEBUG Demo:10 - debug log
2020-06-12 13:52:38 ERROR Demo:11 - error log
2020-06-12 13:52:38 INFO  Demo:12 - info log
2020-06-12 13:52:38 DEBUG Demo:10 - debug log
2020-06-12 13:52:38 ERROR Demo:11 - error log
2020-06-12 13:52:38 INFO  Demo:12 - info log
2020-06-12 13:52:38 DEBUG Demo:10 - debug log
2020-06-12 13:52:38 ERROR Demo:11 - error log
2020-06-12 13:52:38 INFO  Demo:12 - info log
2020-06-12 13:52:38 DEBUG Demo:10 - debug log
2020-06-12 13:52:38 ERROR Demo:11 - error log
2020-06-12 13:52:38 INFO  Demo:12 - info log
